"superordo","ordo","infraordo","superfamilia","familia","subfamilia","species","synonym","magyarnev","vedettseg","natura2000","eszmeiertek","species_simple"
"Egyenesszárnyúak (Orthopteroida)","Tojócsövesek (Ensifera)","Tücsökalkatúak (Gryllidea)","Tücskök (Grylloidea)","Trigonidiidae",,"Pteronemobius heydenii (Fischer, 1853)","Nemobius laterali (Costa, 1855)|Nemobius saussure (Burr, 1898)","Mocsáritücsök",,,,"Pteronemobius heydenii"
"Egyenesszárnyúak (Orthopteroida)","Tojócsövesek (Ensifera)","Tücsökalkatúak (Gryllidea)","Tücskök (Grylloidea)","Trigonidiidae",,"Stenonemobius bicolor ponticus (Gorochov, 1984)",,"Pontuszi karcsútücsök",,,,"Stenonemobius bicolor ponticus"
"Egyenesszárnyúak (Orthopteroida)","Tojócsövesek (Ensifera)","Tücsökalkatúak (Gryllidea)","Tücskök (Grylloidea)","Pirregőtücskök (Oecanthidae)",,"Oecanthus pellucens (Scopoli, 1763)","Acheta aque (Fabricius, 1798)|Acheta italicu (Fabricius, 1781)|Semblis lutari (Petagna, 1792)","Pirregő tücsök",,,,"Oecanthus pellucens"
"Egyenesszárnyúak (Orthopteroida)","Tojócsövesek (Ensifera)","Tücsökalkatúak (Gryllidea)","Tücskök (Grylloidea)","Hangyásztücskök (Myrmecophylidae)",,"Myrmecophylus acervorum (Panzer, 1799)",,"Közép-európai hangyásztücsök",,,,"Myrmecophylus acervorum"
"Egyenesszárnyúak (Orthopteroida)","Tojócsövesek (Ensifera)","Tücsökalkatúak (Gryllidea)","Tücskök (Grylloidea)","Hangyásztücskök (Myrmecophylidae)",,"Myrmecophylus nonveilleri (Ingrisch & Pavicevic, 2008)",,"Nonveiller-hangyásztücsök",,,,"Myrmecophylus nonveilleri"
"Egyenesszárnyúak (Orthopteroida)","Tojócsövesek (Ensifera)","Szöcskealkatúak (Tettigoniidea)","Szöcskefélék (Tettigonioidea)","Nyergesszöcskék (Bradyporidae)","Nyergesszöcske-formák (Ephippigerinae)","Ephippiger ephippiger (Fiebig, 1784)","Ephippigera fabricii (Fieber, 1853)|Ephippiger fibigii (Fieber, 1853)|Ephippigera vitium (Serville, 1831)","Nyergesszöcske",,,,"Ephippiger ephippiger"
"Egyenesszárnyúak (Orthopteroida)","Tojócsövesek (Ensifera)","Szöcskealkatúak (Tettigoniidea)","Szöcskefélék (Tettigonioidea)","Kúpfejűszöcskék (Conocephalidae)","Kúpfejűszöcske-formák (Conocephalinae)","Conocephalus fuscus (Fabricius, 1793)","Conocephalus (Anisoptera) dilatatu (Ramme, 1951)|Conocephalus discolor (Thunberg, 1815)|Xyphidium ponticus (Nedelkov, 1907)|Xiphidium thoracicus (Fischer von Waldheim, 1846)|Conocephalus fuscum turanicu (Semenov, 1915)","Kis kúpfejűszöcske",,,,"Conocephalus fuscus"
"Egyenesszárnyúak (Orthopteroida)","Tojócsövesek (Ensifera)","Szöcskealkatúak (Tettigoniidea)","Szöcskefélék (Tettigonioidea)","Kúpfejűszöcskék (Conocephalidae)","Kúpfejűszöcske-formák (Conocephalinae)","Conocephalus dorsalis (Latreille, 1804)","Xiphidium brevicaudatu (Uvarov, 1910)|Anisoptera hungaricu (Cziki, 1923)","Sarlós kúpfejűszöcske",,,,"Conocephalus dorsalis"
"Egyenesszárnyúak (Orthopteroida)","Tojócsövesek (Ensifera)","Szöcskealkatúak (Tettigoniidea)","Szöcskefélék (Tettigonioidea)","Kúpfejűszöcskék (Conocephalidae)","Nagykúpfejűszücske-formák (Copiphorinae)","Ruspolia nitidula (Scopoli, 1786)","Conocephalus ambiguu (Stĺl, 1876)|Conocephalus nitidulus variety bicolo (Pylnov, 1911)|Locusta erythrosoma (Saint-Fargeau & Serville, 1825)|Homorocoryphus eurostratu (Jannone, 1936)|Locusta lineata Brisout d (Barneville, 1849)|Conocephalus ambiguus macroptercu (Bolívar, 1890)|Conocephalus mandibularis (Charpentier, 1825)|Conocephalus ambiguus mino (Bolívar, 1890)|Locusta tuberculat (Rossius, 1790)","Nagy kúpfejűszöcske",,,,"Ruspolia nitidula"
"Egyenesszárnyúak (Orthopteroida)","Tojócsövesek (Ensifera)","Szöcskealkatúak (Tettigoniidea)","Szöcskefélék (Tettigonioidea)","Dobolószöcskék (Meconematidae)",,"Meconema thalassinum (DeGeer, 1773)","Gryllus arboreu (Fuessly, 1775)|Locusta variu (Fabricius, 1775)","Közönséges dobolószöcske",,,,"Meconema thalassinum"
"Egyenesszárnyúak (Orthopteroida)","Tojócsövesek (Ensifera)","Szöcskealkatúak (Tettigoniidea)","Szöcskefélék (Tettigonioidea)","Dobolószöcskék (Meconematidae)",,"Meconema meridionale (Costa, 1860)","Meconema brevipenn (Yersin, 1860)","Déli dobolószöcske",,,,"Meconema meridionale"
"Egyenesszárnyúak (Orthopteroida)","Tojócsövesek (Ensifera)","Szöcskealkatúak (Tettigoniidea)","Szöcskefélék (Tettigonioidea)","Lomhaszöcskék (Phaneropteridae)",,"Phaneroptera falcata (Poda, 1761)","Locusta libellul (Stoll, 1787)|Phaneroptera litifolia (Serville, 1831)|Decticus phyllopteroides (Fischer von Waldheim, 1846)|Phaneroptera sinensi (Uvarov, 1933)","Zöld repülőszöcske",,,,"Phaneroptera falcata"
"Egyenesszárnyúak (Orthopteroida)","Tojócsövesek (Ensifera)","Szöcskealkatúak (Tettigoniidea)","Szöcskefélék (Tettigonioidea)","Lomhaszöcskék (Phaneropteridae)",,"Phaneroptera nana (Fieber, 1853)","Phaneroptera quadripunctata (Brunner von Wattenwyl, 1878)","Pontozott repülőcsöcske",,,,"Phaneroptera nana"
"Egyenesszárnyúak (Orthopteroida)","Tojócsövesek (Ensifera)","Szöcskealkatúak (Tettigoniidea)","Szöcskefélék (Tettigonioidea)","Lomhaszöcskék (Phaneropteridae)",,"Isophya kraussii (Brunner von Wattenwyl, 1878)",,"Közönséges tarsza",,,,"Isophya kraussii"
"Egyenesszárnyúak (Orthopteroida)","Tojócsövesek (Ensifera)","Szöcskealkatúak (Tettigoniidea)","Szöcskefélék (Tettigonioidea)","Lomhaszöcskék (Phaneropteridae)",,"Isophya camptoxypha (Fieber, 1853)","Isophya brevipennis (Brunner von Wattenwyl, 1878 )","Kárpáti tarsza","Védett",,"10000","Isophya camptoxypha"
"Egyenesszárnyúak (Orthopteroida)","Tojócsövesek (Ensifera)","Szöcskealkatúak (Tettigoniidea)","Szöcskefélék (Tettigonioidea)","Lomhaszöcskék (Phaneropteridae)",,"Isophya stysi (Cejchan, 1957)",,"Hegyi tarsza ","Fokozottan  védett","N","100000","Isophya stysi"
"Egyenesszárnyúak (Orthopteroida)","Tojócsövesek (Ensifera)","Szöcskealkatúak (Tettigoniidea)","Szöcskefélék (Tettigonioidea)","Lomhaszöcskék (Phaneropteridae)",,"Isophya modesta (Frivaldszky, 1868)",,"Szerény tarsza ","Védett",,"10000","Isophya modesta"
"Egyenesszárnyúak (Orthopteroida)","Tojócsövesek (Ensifera)","Szöcskealkatúak (Tettigoniidea)","Szöcskefélék (Tettigonioidea)","Lomhaszöcskék (Phaneropteridae)",,"Isophya modestior (Brunner von Wattenwyl, 1882)","Isophya fusconotata (Brunner von Wattenwyl, 1882)","Illír tarsza","Védett",,"10000","Isophya modestior"
"Egyenesszárnyúak (Orthopteroida)","Tojócsövesek (Ensifera)","Szöcskealkatúak (Tettigoniidea)","Szöcskefélék (Tettigonioidea)","Lomhaszöcskék (Phaneropteridae)",,"Isophya pienensis (Maran, 1954)",,"Pienini tarsza ","Védett",,"50000","Isophya pienensis"
"Egyenesszárnyúak (Orthopteroida)","Tojócsövesek (Ensifera)","Szöcskealkatúak (Tettigoniidea)","Szöcskefélék (Tettigonioidea)","Lomhaszöcskék (Phaneropteridae)",,"Isophya costata (Brunner von Wattenwyl, 1878)",,"Magyar tarsza","Fokozottan  védett","N","100000","Isophya costata"
"Egyenesszárnyúak (Orthopteroida)","Tojócsövesek (Ensifera)","Szöcskealkatúak (Tettigoniidea)","Szöcskefélék (Tettigonioidea)","Lomhaszöcskék (Phaneropteridae)",,"Leptophyes albovittata (Kollar, 1833)","Barbitistes foliicauda (Fischer von Waldheim, 1846)|Leptophyes pontica (Bey-Bienko, 1941)|Odontura vittata (Fischer, 1853)","Közönséges virágszöcske",,,,"Leptophyes albovittata"
"Egyenesszárnyúak (Orthopteroida)","Tojócsövesek (Ensifera)","Szöcskealkatúak (Tettigoniidea)","Szöcskefélék (Tettigonioidea)","Lomhaszöcskék (Phaneropteridae)",,"Leptophyes punctatissima (Bosc, 1792)","Locusta autumnali (Hagenbach, 1822)|Barbitistes glabricaud (Borck, 1848)|Odontura standishi (Miller, 1889)|Ephippigera virescen (Stephens, 1835)","Rőthátú virágszöcske ",,,,"Leptophyes punctatissima"
"Egyenesszárnyúak (Orthopteroida)","Tojócsövesek (Ensifera)","Szöcskealkatúak (Tettigoniidea)","Szöcskefélék (Tettigonioidea)","Lomhaszöcskék (Phaneropteridae)",,"Leptophyes discoidalis (Frivaldszky, 1868)",,"Erdélyi virágszöcske","Védett",,"10000","Leptophyes discoidalis"
"Egyenesszárnyúak (Orthopteroida)","Tojócsövesek (Ensifera)","Szöcskealkatúak (Tettigoniidea)","Szöcskefélék (Tettigonioidea)","Lomhaszöcskék (Phaneropteridae)",,"Polysarcus denticauda (Charpentier, 1825)","Barbitistes denticauda (Charpentier, 1825)|Orphania lixoniensi (Saulcy, 1887)","Fogasfarkú szöcske","Védett",,"5000","Polysarcus denticauda"
"Egyenesszárnyúak (Orthopteroida)","Tojócsövesek (Ensifera)","Szöcskealkatúak (Tettigoniidea)","Szöcskefélék (Tettigonioidea)","Lomhaszöcskék (Phaneropteridae)",,"Barbitistes constrictus (Brunner von Wattenwyl, 1878)","Barbitistes sanguinolentus (F.W. 1846)","Északi málnaszöcske v. fenyőrágó szöcske",,,,"Barbitistes constrictus"
"Egyenesszárnyúak (Orthopteroida)","Tojócsövesek (Ensifera)","Szöcskealkatúak (Tettigoniidea)","Szöcskefélék (Tettigonioidea)","Lomhaszöcskék (Phaneropteridae)",,"Barbitistes serricauda (Fabricius, 1798)","Barbitistes assimilis (Fieber, 1853)|Barbitistes sanguinolentus (F.W., 1846; Barbitistes virgineu Navás, 1908)","Málnaszöcske",,,,"Barbitistes serricauda"
"Egyenesszárnyúak (Orthopteroida)","Tojócsövesek (Ensifera)","Szöcskealkatúak (Tettigoniidea)","Szöcskefélék (Tettigonioidea)","Lomhaszöcskék (Phaneropteridae)",,"Poecilimon brunneri (Frivaldszky, 1868)","Poecilimon lemnoticu (Werner, 1932)","Brunner-pókszöcske","Fokozottan  védett",,"100000","Poecilimon brunneri"
"Egyenesszárnyúak (Orthopteroida)","Tojócsövesek (Ensifera)","Szöcskealkatúak (Tettigoniidea)","Szöcskefélék (Tettigonioidea)","Lomhaszöcskék (Phaneropteridae)",,"Poecilimon fussi (Fieber, 1878)","Poecilimon matis (Maran, 1953)","Fuss-pókszöcske","Védett",,"10000","Poecilimon fussi"
"Egyenesszárnyúak (Orthopteroida)","Tojócsövesek (Ensifera)","Szöcskealkatúak (Tettigoniidea)","Szöcskefélék (Tettigonioidea)","Lomhaszöcskék (Phaneropteridae)",,"Poecilimon intermedius (Fieber, 1853)",,"Keleti pókszöcske ","Védett",,"10000","Poecilimon intermedius"
"Egyenesszárnyúak (Orthopteroida)","Tojócsövesek (Ensifera)","Szöcskealkatúak (Tettigoniidea)","Szöcskefélék (Tettigonioidea)","Lomhaszöcskék (Phaneropteridae)",,"Poecilimon schmidti (Fieber, 1853)",,"Schmidt-pókszöcske ","Védett",,"10000","Poecilimon schmidti"
"Egyenesszárnyúak (Orthopteroida)","Tojócsövesek (Ensifera)","Szöcskealkatúak (Tettigoniidea)","Szöcskefélék (Tettigonioidea)","Fürgeszöcskék (Tettigoniidae)","Fürgeszöcske-formák (Tettigoniinae)","Tettigonia viridissima (Linnaeus, 1758)","Tettigonia viridis cantatrix D (Geer, 1773)|Tettigonia caudata flava (Nedelkov, 1907)|Agraecia incognit (Piza, 1970)|Tettigonia paoli intermedi (Jannone, 1937)|Tettigonia viridissima meridionali (Shugurov, 1912)|Conocephalus ambiguus macroptercu (Bolívar, 1890)|Tettigonia paol (Capra, 1936)|Tettigonia trinacria (Jannone, 1937)","Zöld lombszöcske",,,,"Tettigonia viridissima"
"Egyenesszárnyúak (Orthopteroida)","Tojócsövesek (Ensifera)","Szöcskealkatúak (Tettigoniidea)","Szöcskefélék (Tettigonioidea)","Fürgeszöcskék (Tettigoniidae)","Fürgeszöcske-formák (Tettigoniinae)","Tettigonia caudata (Charpentier, 1842)","Gryllus flavipe (Gmelin, 1788)|Gryllus (Locusta) germanicu (Stoll, 1813)|Acrydium rubripes D (Geer, 1773)","Farkos lombszöcske ","Védett",,"5000","Tettigonia caudata"
"Egyenesszárnyúak (Orthopteroida)","Tojócsövesek (Ensifera)","Szöcskealkatúak (Tettigoniidea)","Szöcskefélék (Tettigonioidea)","Fürgeszöcskék (Tettigoniidae)","Fürgeszöcske-formák (Tettigoniinae)","Tettigonia cantans (Fuessly, 1775)","Tettigonia gaverniensis (Serville, 1838)","Éneklő lomszöcske ",,,,"Tettigonia cantans"
"Egyenesszárnyúak (Orthopteroida)","Tojócsövesek (Ensifera)","Szöcskealkatúak (Tettigoniidea)","Szöcskefélék (Tettigonioidea)","Fürgeszöcskék (Tettigoniidae)","Fürgeszöcske-formák (Tettigoniinae)","Decticus verrucivorus (Linnaeus, 1785)","Peltastes hastatus (Fischer von Waldheim, 1839)|Pterolepis radiata (Fischer von Waldheim, 1846)|Tettigonia longicaud (Eversmann, 1848)|Decticus verrucivorus variety delia (Fritze, 1918)|Gryllus (Tettigonia) rubicundus D (Geer, 1778)","Szemölcsrágószöcske",,,,"Decticus verrucivorus"
"Egyenesszárnyúak (Orthopteroida)","Tojócsövesek (Ensifera)","Szöcskealkatúak (Tettigoniidea)","Szöcskefélék (Tettigonioidea)","Fürgeszöcskék (Tettigoniidae)","Fürgeszöcske-formák (Tettigoniinae)","Platycleis grisea (Fabricius, 1781)",,"Szürke rétiszöcske ",,,,"Platycleis grisea"
"Egyenesszárnyúak (Orthopteroida)","Tojócsövesek (Ensifera)","Szöcskealkatúak (Tettigoniidea)","Szöcskefélék (Tettigonioidea)","Fürgeszöcskék (Tettigoniidae)","Fürgeszöcske-formák (Tettigoniinae)","Platycleis affinis (Fieber, 1853)","Platycleis bosca (Bolívar, 1873)","Púposhasú rétiszöcske",,,,"Platycleis affinis"
"Egyenesszárnyúak (Orthopteroida)","Tojócsövesek (Ensifera)","Szöcskealkatúak (Tettigoniidea)","Szöcskefélék (Tettigonioidea)","Fürgeszöcskék (Tettigoniidae)","Fürgeszöcske-formák (Tettigoniinae)","Tesselana veyseli (Kocak, 1984)","Locusta vittata (Charpentier, 1825)|Platycleis vittata (Charpentier, 1825)|Patycleis (Tessellana) veyseli (Koçak, 1984)","Csíkos rétiszöcske",,,,"Tesselana veyseli"
"Egyenesszárnyúak (Orthopteroida)","Tojócsövesek (Ensifera)","Szöcskealkatúak (Tettigoniidea)","Szöcskefélék (Tettigonioidea)","Fürgeszöcskék (Tettigoniidae)","Fürgeszöcske-formák (Tettigoniinae)","Montana montana (Kollar, 1833)","Decticus philippicus (Zeller, 1849)|Decticus trockii (Kittary, 1849)","Homokpusztai szöcske",,,,"Montana montana"
"Egyenesszárnyúak (Orthopteroida)","Tojócsövesek (Ensifera)","Szöcskealkatúak (Tettigoniidea)","Szöcskefélék (Tettigonioidea)","Fürgeszöcskék (Tettigoniidae)","Fürgeszöcske-formák (Tettigoniinae)","Metrioptera brachyptera (Linnaeus, 1761)","Metrioptera alpinus (Fieber, 1853)|Metrioptera insignita (Bey-Bienko, 1926)|Platycleis rai (Burr, 1899)|Decticus tibialis (Fischer von Waldheim, 1846)","Sötétzöld rétiszöcske",,,,"Metrioptera brachyptera"
"Egyenesszárnyúak (Orthopteroida)","Tojócsövesek (Ensifera)","Szöcskealkatúak (Tettigoniidea)","Szöcskefélék (Tettigonioidea)","Fürgeszöcskék (Tettigoniidae)","Fürgeszöcske-formák (Tettigoniinae)","Bicolorana bicolor (Philippi, 1830)","Decticus abbreviat (Serville, 1838)|Decticus sieboldii (Fischer, 1849)|Locusta viennensi (Marschall, 1836)|Metrioptera bicolor (Philippi, 1830)","Halványzöld rétiszöcske ",,,,"Bicolorana bicolor"
"Egyenesszárnyúak (Orthopteroida)","Tojócsövesek (Ensifera)","Szöcskealkatúak (Tettigoniidea)","Szöcskefélék (Tettigonioidea)","Fürgeszöcskék (Tettigoniidae)","Fürgeszöcske-formák (Tettigoniinae)","Roeseliana roeselii (Hagenbach, 1822)","Locusta brevipennis (Charpentier, 1825)|Locusta diluta (Charpentier, 1825)|Metrioptera pellucida (Herrich-Schäffer, 1840)|Platycleis pulchr (Werner, 1901)|Platycleis roesel (Bolívar, 1900)|Chelidoptera sinuatus (Fischer von Waldheim, 1846)","Roesel-rétiszöcske ",,,,"Roeseliana roeselii"
"Egyenesszárnyúak (Orthopteroida)","Tojócsövesek (Ensifera)","Szöcskealkatúak (Tettigoniidea)","Szöcskefélék (Tettigonioidea)","Fürgeszöcskék (Tettigoniidae)","Fürgeszöcske-formák (Tettigoniinae)","Pholidoptera aptera (Fabricius, 1793)","Pterolepis lugubris (Fieber, 1853)|Pholidoptera mikoi (Fieber, 1853)","Nagy avarszöcske",,,,"Pholidoptera aptera"
"Egyenesszárnyúak (Orthopteroida)","Tojócsövesek (Ensifera)","Szöcskealkatúak (Tettigoniidea)","Szöcskefélék (Tettigonioidea)","Fürgeszöcskék (Tettigoniidae)","Fürgeszöcske-formák (Tettigoniinae)","Pholidoptera littoralis (Brunner v. W., 1861)",,"Bújkáló avarszöcske ","Védett",,"10000","Pholidoptera littoralis"
"Egyenesszárnyúak (Orthopteroida)","Tojócsövesek (Ensifera)","Szöcskealkatúak (Tettigoniidea)","Szöcskefélék (Tettigonioidea)","Fürgeszöcskék (Tettigoniidae)","Fürgeszöcske-formák (Tettigoniinae)","Pholidoptera transsylvanica (Fischer, 1853)",,"Erdélyi avarszöcske ","Védett","N","50000","Pholidoptera transsylvanica"
"Egyenesszárnyúak (Orthopteroida)","Tojócsövesek (Ensifera)","Szöcskealkatúak (Tettigoniidea)","Szöcskefélék (Tettigonioidea)","Fürgeszöcskék (Tettigoniidae)","Fürgeszöcske-formák (Tettigoniinae)","Pholidoptera fallax (Fischer, 1853)","Thamnotrizon austriacu (Türk, 1860)","Galléros avarszöcske",,,,"Pholidoptera fallax"
"Egyenesszárnyúak (Orthopteroida)","Tojócsövesek (Ensifera)","Szöcskealkatúak (Tettigoniidea)","Szöcskefélék (Tettigonioidea)","Fürgeszöcskék (Tettigoniidae)","Fürgeszöcske-formák (Tettigoniinae)","Pholidoptera griseoaptera (DeGeer, 1773)","Locusta aptera (Charpentier, 1825)|Gryllus cinereu (Gmelin, 1789)","Szürke avarszöcske",,,,"Pholidoptera griseoaptera"
"Egyenesszárnyúak (Orthopteroida)","Tojócsövesek (Ensifera)","Szöcskealkatúak (Tettigoniidea)","Szöcskefélék (Tettigonioidea)","Fürgeszöcskék (Tettigoniidae)","Fürgeszöcske-formák (Tettigoniinae)","Rhacocleis germanica (Herrich-Schaeffer, 1840)","Rhacocleis discrepans FIEB. 1853|Pterolepis modesta (FISCH. 1853)|Thamnotrizon pallidus (BR. 1861)","Németszöcske ",,,,"Rhacocleis germanica"
"Egyenesszárnyúak (Orthopteroida)","Tojócsövesek (Ensifera)","Szöcskealkatúak (Tettigoniidea)","Szöcskefélék (Tettigonioidea)","Fürgeszöcskék (Tettigoniidae)","Fürgeszöcske-formák (Tettigoniinae)","Pachytrachys gracilis (Brunner v. W., 1861)",,"Karcsúszöcske",,,,"Pachytrachys gracilis"
"Egyenesszárnyúak (Orthopteroida)","Tojócsövesek (Ensifera)","Szöcskealkatúak (Tettigoniidea)","Szöcskefélék (Tettigonioidea)","Fürgeszöcskék (Tettigoniidae)","Fürgeszöcske-formák (Tettigoniinae)","Gampsocleis glabra (Herbst, 1786)","Locusta maculata (Charpentier, 1825)|Decticus albert (Seidl, 1937)|Gampsocleis anna (Shugurov, 1908)|Decticus gratiosu (Millet, 1870)|Gampsocleis podolic (Shugurov, 1908)|Locusta prim (Schaff, 1776)","Tőrösszöcske ","Védett",,"5000","Gampsocleis glabra"
"Egyenesszárnyúak (Orthopteroida)","Tojócsövesek (Ensifera)","Szöcskealkatúak (Tettigoniidea)","Szöcskefélék (Tettigonioidea)","Fürgeszöcskék (Tettigoniidae)","Fűrészlábúszöcske-formák (Saginae)","Saga pedo (Pallas, 1771)","Saga serrata (Charpentier, 1825)","Fűrészlábú szöcske","Védett","N","50000","Saga pedo"
"Egyenesszárnyúak (Orthopteroida)","Tojócsövesek (Ensifera)","Szöcskealkatúak (Tettigoniidea)","Szöcskefélék (Tettigonioidea)","Raphidiophoridae",,"Diestrammena asynamora (Adelung, 1902)","Tachycines meditationi (Würmli, 1973)|Tachycines mino (Chopard, 1963)|Tachycines asynamoru (Adelung, 1902)","Üvegháziszöcske",,,,"Diestrammena asynamora"
"Egyenesszárnyúak (Orthopteroida)","Tojókampósok (Caelifera)","Ásósáska szerűek (Tridactylodea)","Ásósáskafélék (Tridactyloidea)","Ásósáskák (Tridactylidae)",,"Xya variegata (Latreille, 1809)",,"Tarka ásósáska ",,,,"Xya variegata"
"Egyenesszárnyúak (Orthopteroida)","Tojókampósok (Caelifera)","Ásósáska szerűek (Tridactylodea)","Ásósáskafélék (Tridactyloidea)","Ásósáskák (Tridactylidae)",,"Xya pfaendleri (Harz, 1970)","Tridactylus indistinctu (Harz, 1979)|Tridactylus musicu (Harz, 1978)|Xya pfaendleri palaestina (Harz, 1971)","Pfandler-ásósáska",,,,"Xya pfaendleri"
"Egyenesszárnyúak (Orthopteroida)","Tojókampósok (Caelifera)","Tövishátúsáska szerűek (Tetrigodea)","Tövishátúsáskafélék (Tetrigoidea)","Valódi tövishátúsáskák (Tetrigidae)",,"Tetrix bipunctata (Saulcy, 1888)","Tetrix krauss (Lehmann, 2004)","Kétpettyes tövishátúsáska",,,,"Tetrix bipunctata"
"Egyenesszárnyúak (Orthopteroida)","Tojókampósok (Caelifera)","Tövishátúsáska szerűek (Tetrigodea)","Tövishátúsáskafélék (Tetrigoidea)","Valódi tövishátúsáskák (Tetrigidae)",,"Tetrix bolivari (Saulcy, 1901)","Tetrix bolivari bazyluk (Karaman, 1965)|Paratettix caucasicus (Bey-Bienko, 1931)|Tetrix bolivari muche (Harz, 1979)|Tetrix bolivari ragge (Karaman, 1965)","Bolivar tövishátúsáska",,,,"Tetrix bolivari"
"Egyenesszárnyúak (Orthopteroida)","Tojókampósok (Caelifera)","Sáskaszerűek (Acridodea)","Sáskafélék (Acridoidea)","Sáskák (Acrididae)","Vaskossáska-formák (Oedipodinae)","Epacromius coerulipes (Ivanov, 1887)","Aiolopus tergestinus chinensi (Karny, 1907)","Sziki v. pannon sáska ","Védett",,"5000","Epacromius coerulipes"
"Egyenesszárnyúak (Orthopteroida)","Tojókampósok (Caelifera)","Sáskaszerűek (Acridodea)","Sáskafélék (Acridoidea)","Sáskák (Acrididae)","Karcsúsáska-formák (Gomphocerinae)","Arcyptera fusca (Pallas, 1773)","Gryllus cothurnatus (Creutzer, 1799)|Gryllus (Locusta) nympha (Stoll, 1813)|Arcyptera stollii (Fieber, 1853)|Gryllus (Locusta) variegatus (Sulzer, 1776)|Gryllus versicolor (Gmelin, 1788)","Szép hegyisáska","Védett",,"10000","Arcyptera fusca"
"Egyenesszárnyúak (Orthopteroida)","Tojókampósok (Caelifera)","Sáskaszerűek (Acridodea)","Sáskafélék (Acridoidea)","Sáskák (Acrididae)","Karcsúsáska-formák (Gomphocerinae)","Arcyptera microptera (Fischer de Waldheim, 1833)",,"Sztyeplejtősáska","Védett",,"10000","Arcyptera microptera"
"Egyenesszárnyúak (Orthopteroida)","Tojókampósok (Caelifera)","Tövishátúsáska szerűek (Tetrigodea)","Tövishátúsáskafélék (Tetrigoidea)","Valódi tövishátúsáskák (Tetrigidae)",,"Tetrix subulata (Linnaeus, 1758)","Tetrix subulata atrat (Voroncovskij, 1928)|Tetrix austriaca (Schmidt & Devkota, 1989)|Tetrix bielawski (Bazyluk, 1963)|Acrydium bimaculatu (Herbst, 1786)|Acrydium cristatum (Thunberg, 1815)|Acrydium dorsale (Thunberg, 1815)|Acrydium ephippium (Thunberg, 1815)|Tetrix exclamationis (Saint-Fargeau & Serville, 1825)|Tetrix flavolineat (Voroncovskij, 1928)|Acrydium granulatu (Kirby, 1837)|Tettix incurvatu (Hancock, 1895)|Tettix lugger (Hancock, 1899)|Acrydium lunulatum (Thunberg, 1815)|Tetrix marginata (Saint-Fargeau & Serville, 1825)|Tettix morse (Hancock, 1899)|Acrydium subulatum variety oculat (Karny, 1908)|Tetrix panzeri (Saint-Fargeau & Serville, 1825)|Acrydium quadrimaculatum (Thunberg, 1815)|Tetrix subulata variety sahlberg (Saulcy, 1893)|Tetrix subalat (Otte, 1997)","Közönséges tövishátúsáska ",,,,"Tetrix subulata"
"Egyenesszárnyúak (Orthopteroida)","Tojókampósok (Caelifera)","Tövishátúsáska szerűek (Tetrigodea)","Tövishátúsáskafélék (Tetrigoidea)","Valódi tövishátúsáskák (Tetrigidae)",,"Tetrix tenuicornis (Shalberg, 1891)","Tetrix antennat (Steinmann, 1964)|Tetrix undulata australis (Bey-Bienko, 1964)|Tetrix nutan (Hagenbach, 1822)|Tetrix pisarski (Bazyluk, 1963)","Vékonycsápú tövishátúsáska",,,,"Tetrix tenuicornis"
"Egyenesszárnyúak (Orthopteroida)","Tojókampósok (Caelifera)","Tövishátúsáska szerűek (Tetrigodea)","Tövishátúsáskafélék (Tetrigoidea)","Valódi tövishátúsáskák (Tetrigidae)",,"Tetrix undulata (Soverby, 1806)","Acrydium bifasciatum (Thunberg, 1815)|Tetrix kieffer (Saulcy, 1901)|Acridium ochraceu (Zetterstedt, 1821)|Acridium scriptu (Zetterstedt, 1821)|Tetrix variegatu (Zetterstedt, 1821)|Acrydium vittat (Zetterstedt, 1821)","Ligeti tövishátúsáska",,,,"Tetrix undulata"
"Egyenesszárnyúak (Orthopteroida)","Tojókampósok (Caelifera)","Tövishátúsáska szerűek (Tetrigodea)","Tövishátúsáskafélék (Tetrigoidea)","Valódi tövishátúsáskák (Tetrigidae)",,"Tetrix ceperoi (Bolívar, 1887)","Tetrix jarocki (Bazyluk, 1962)","Délnyugati tövishátúsáska",,,,"Tetrix ceperoi"
"Egyenesszárnyúak (Orthopteroida)","Tojókampósok (Caelifera)","Sáskaszerűek (Acridodea)","Sáskafélék (Acridoidea)","Sáskák (Acrididae)","Sisakossáska-formák (Acridinae)","Acrida ungarica (Herbst, 1786)","Acrida cypria (Dirsh, 1949; Truxalis bicolor Thunberg, 1815)","Sisakossáska","Védett",,"50000","Acrida ungarica"
"Egyenesszárnyúak (Orthopteroida)","Tojókampósok (Caelifera)","Sáskaszerűek (Acridodea)","Sáskafélék (Acridoidea)","Sáskák (Acrididae)","Olaszsáska-formák (Calliptaminae)","Calliptamus italicus (Linnaeus, 1758)","Gryllus affinis (Thunberg, 1815)|Calliptamus afghanu (Ramme, 1952)|Calliptamus italicus bilineat (Puschnig, 1910)|Calliptamus italicus blandu (Ivanov, 1888)|Calliptamus cerisanus (Serville, 1838)|Acridium fasciatu (Hahn, 1836)|Gryllus germanicu (Fabricius, 1775)|Calliptamus italicus gilvonigrican (Voroncovskij, 1927)|Calliptamus italicus grandi (Ramme, 1927)|Calliptamus italicus insulari (Ramme, 1951)|Calliptamus marginellus (Serville, 1838)|Calliptamus marmoratus (Fischer von Waldheim, 1846)|Calliptamus italicus reductu (Ramme, 1930)","Olaszsáska",,,,"Calliptamus italicus"
"Egyenesszárnyúak (Orthopteroida)","Tojókampósok (Caelifera)","Sáskaszerűek (Acridodea)","Sáskafélék (Acridoidea)","Sáskák (Acrididae)","Olaszsáska-formák (Calliptaminae)","Calliptamus barbarus (Costa, 1836)","Calliptamus ictericus chopardi (Grassé & Hollande, 1945)|Caloptenus italicus variety deserticol (Vosseler, 1902)|Caloptenus discoidali (Walker, 1870)|Calliptamus ictericus (Serville, 1838)|Caloptenus italicus minimu (Ivanov, 1888)|Calliptamus barbarus monspelliensis (Grassé & Hollande, 1945)|Calliptamus montanu (Chopard, 1937)|Calliptamus barbarus nanu (Mishchenko, 1951)|Calliptamus barbarus pallidipe (Chopard, 1943)|Calliptamus barbarus parvu (Maran, 1952)|Caloptenopsis punctat (Kirby, 1914)|Calliptamus salin (Maran, 1954)|Caloptenus siculu (Burmeister, 1838)","Homoki olaszsáska (barbársáska)","Védett",,"5000","Calliptamus barbarus"
"Egyenesszárnyúak (Orthopteroida)","Tojókampósok (Caelifera)","Sáskaszerűek (Acridodea)","Sáskafélék (Acridoidea)","Sáskák (Acrididae)","Olaszsáska-formák (Calliptaminae)","Paracaloptenus caloptenoides (Brunner von WWattenwyll, 1861)","Paracaloptenus typu (Bolívar, 1878)","Ál-olaszsáska","Fokozottan  védett","N","100000","Paracaloptenus caloptenoides"
"Egyenesszárnyúak (Orthopteroida)","Tojókampósok (Caelifera)","Sáskaszerűek (Acridodea)","Sáskafélék (Acridoidea)","Sáskák (Acrididae)","Hegyisásáka-formák (Catantopinae)","Miramella alpina (Kollar, 1833)","Pezotettix alpinus collina Brunner von Wattenwyl, 1864)|Acridium pulchellum (Herrich-Schäffer, 1840)","Alpesisáska ",,,,"Miramella alpina"
"Egyenesszárnyúak (Orthopteroida)","Tojókampósok (Caelifera)","Sáskaszerűek (Acridodea)","Sáskafélék (Acridoidea)","Sáskák (Acrididae)","Hegyisásáka-formák (Catantopinae)","Odontopodisma decipiens (Ramme, 1951)",,"Déli vagy olajzöld hegyisáska",,,,"Odontopodisma decipiens"
"Egyenesszárnyúak (Orthopteroida)","Tojókampósok (Caelifera)","Sáskaszerűek (Acridodea)","Sáskafélék (Acridoidea)","Sáskák (Acrididae)","Hegyisásáka-formák (Catantopinae)","Odontopodisma rubripes (Ramme, 1931)",,"Vöröslábú hegyisáska ","Védett","N","10000","Odontopodisma rubripes"
"Egyenesszárnyúak (Orthopteroida)","Tojókampósok (Caelifera)","Sáskaszerűek (Acridodea)","Sáskafélék (Acridoidea)","Sáskák (Acrididae)","Hegyisásáka-formák (Catantopinae)","Odontopodisma schmidtii (Fieber, 1853)",,"Schmidt-hegyisáska ",,,,"Odontopodisma schmidtii"
"Egyenesszárnyúak (Orthopteroida)","Tojókampósok (Caelifera)","Sáskaszerűek (Acridodea)","Sáskafélék (Acridoidea)","Sáskák (Acrididae)","Hegyisásáka-formák (Catantopinae)","Pezotettix giornae (Rossi, 1794)","Podisma communi (Costa, 1836)|Pezotettix giorna (Jacobson, 1905)|Platyphyma giornae variety rufipes (Brunner von Wattenwyl, 1882)|Omocestus rufipes rufitarsi (Navás, 1909)","Kis hegyisáska ",,,,"Pezotettix giornae"
"Egyenesszárnyúak (Orthopteroida)","Tojókampósok (Caelifera)","Sáskaszerűek (Acridodea)","Sáskafélék (Acridoidea)","Sáskák (Acrididae)","Hegyisásáka-formák (Catantopinae)","Podisma pedestris (Linnaeus, 1758)","Acrydium apterum (De Geer, 1773)|Podisma pedestris mesoptera Ramme|Podisma pedestris semifasciata (Werner, 1933; Pezotettix pedestris Fischer, 1853)","Tarka hegyisáska ","Védett",,"10000","Podisma pedestris"
"Egyenesszárnyúak (Orthopteroida)","Tojókampósok (Caelifera)","Sáskaszerűek (Acridodea)","Sáskafélék (Acridoidea)","Sáskák (Acrididae)","Hegyisásáka-formák (Catantopinae)","Pseudopodisma nagyi (Galvagni et Fontana, 1993)",,"Nagy hegyisáskája ",,,,"Pseudopodisma nagyi"
"Egyenesszárnyúak (Orthopteroida)","Tojókampósok (Caelifera)","Sáskaszerűek (Acridodea)","Sáskafélék (Acridoidea)","Sáskák (Acrididae)","Vaskossáska-formák (Oedipodinae)","Epacromius tergestinus (Charpntier, 1825)",,"Pontuszisáska",,,,"Epacromius tergestinus"
"Egyenesszárnyúak (Orthopteroida)","Tojókampósok (Caelifera)","Sáskaszerűek (Acridodea)","Sáskafélék (Acridoidea)","Sáskák (Acrididae)","Karcsúsáska-formák (Gomphocerinae)","Chorthippus dorsatus (Zetterstedt, 1821)","Locusta ochrop (Stephens, 1835)|Locusta uchrop (Stephens, 1835)","Hátas rétisáska ",,,,"Chorthippus dorsatus"
"Egyenesszárnyúak (Orthopteroida)","Tojókampósok (Caelifera)","Sáskaszerűek (Acridodea)","Sáskafélék (Acridoidea)","Sáskák (Acrididae)","Karcsúsáska-formák (Gomphocerinae)","Chorthippus dichrous (Eversmann, 1859)",,"Vállas rétisáska",,,,"Chorthippus dichrous"
"Egyenesszárnyúak (Orthopteroida)","Tojókampósok (Caelifera)","Sáskaszerűek (Acridodea)","Sáskafélék (Acridoidea)","Sáskák (Acrididae)","Karcsúsáska-formák (Gomphocerinae)","Chorthippus albomarginatus (DeGeer, 1773)","Gryllus blandus (Fischer von Waldheim, 1846)|Gryllus elegans (Charpentier, 1825)|Chorthippus albomarginatus variety hyalosuperficie (Voroncovskij, 1928)|Oedipoda moderatu (Eversmann, 1848)|Chorthippus albomarginatus variety nigrofasciatu (Voroncovskij, 1928)|Chorthippus albomarginatus variety porphyricu (Voroncovskij, 1928)|Oedipoda tricarinat (Stephens, 1835)","Csinos rétisáska ",,,,"Chorthippus albomarginatus"
"Egyenesszárnyúak (Orthopteroida)","Tojókampósok (Caelifera)","Sáskaszerűek (Acridodea)","Sáskafélék (Acridoidea)","Sáskák (Acrididae)","Karcsúsáska-formák (Gomphocerinae)","Chorthippus oschei (Helversen, 1986)",,"Oschei-rétisáska ",,,,"Chorthippus oschei"
"Egyenesszárnyúak (Orthopteroida)","Tojókampósok (Caelifera)","Sáskaszerűek (Acridodea)","Sáskafélék (Acridoidea)","Sáskák (Acrididae)","Karcsúsáska-formák (Gomphocerinae)","Chorthippus montanus (Charpentier, 1825)","Stenobothrus (Chorthippus) longicorni (Jacobson, 1905)","Lápréti sáska",,,,"Chorthippus montanus"
"Egyenesszárnyúak (Orthopteroida)","Tojókampósok (Caelifera)","Sáskaszerűek (Acridodea)","Sáskafélék (Acridoidea)","Sáskák (Acrididae)","Karcsúsáska-formák (Gomphocerinae)","Chorthippus parallelus (Zetterstedt, 1821)","Acrydium longicornis (Latreille, 1804)|Chorthippus longicornis aemulu (Mishchenko, 1951)|Chorthippus caffe (Harz, 1975)|Chorthippus parallelus caffr (Ramme, 1923)|Chorthippus paralellus variety explicatus (Selys-Longchamps, 1862)|Chorthippus parallelus variety fuliginosu (Voroncovskij, 1928)|Chorthippus longicornis form geribert (Harz, 1962)|Stenobothrus parallelus variety major (Brunner von Wattenwyl, 1882)|Chorthippus parallelus variety montan (Chopard, 1922)|Stenobothrus nigrolineatu (Ivanov, 1888)|Chorthippus paralellus variety prasinolaterali (Voroncovskij, 1928)|Chorthippus parallelus variety prasinosuperficie (Voroncovskij, 1928)|Chorthippus parallelus variety prasinu (Voroncovskij, 1928)|Chorthippus parallelus variety pratensi (Puschnig, 1910)|Chorthippus pratoru (Fieber, 1852)|Chorthippus parallelus variety silvestri (Puschnig, 1910)|Chorthippus dorsatus variety viridi (Voroncovskij, 1928)","Közönséges (hátas) rétisáska",,,,"Chorthippus parallelus"
"Egyenesszárnyúak (Orthopteroida)","Tojókampósok (Caelifera)","Sáskaszerűek (Acridodea)","Sáskafélék (Acridoidea)","Sáskák (Acrididae)","Karcsúsáska-formák (Gomphocerinae)","Dociostaurus maroccanus (Thunberg, 1815)",,"Marokkóisáska ",,,,"Dociostaurus maroccanus"
"Egyenesszárnyúak (Orthopteroida)","Tojókampósok (Caelifera)","Sáskaszerűek (Acridodea)","Sáskafélék (Acridoidea)","Sáskák (Acrididae)","Karcsúsáska-formák (Gomphocerinae)","Dociostaurus brevicollis (Eversmann, 1848)",,"Rövidnyakú sáska ",,,,"Dociostaurus brevicollis"
"Egyenesszárnyúak (Orthopteroida)","Tojókampósok (Caelifera)","Sáskaszerűek (Acridodea)","Sáskafélék (Acridoidea)","Sáskák (Acrididae)","Karcsúsáska-formák (Gomphocerinae)","Euchorthippus declivus (Brisout de Barnville, 1848)","Euchorthippus declivus meridionali (Jannone, 1937)|Euchorthippus declivus sticha (Maran, 1954)","Rövidszárnyú rétisáska",,,,"Euchorthippus declivus"
"Egyenesszárnyúak (Orthopteroida)","Tojókampósok (Caelifera)","Sáskaszerűek (Acridodea)","Sáskafélék (Acridoidea)","Sáskák (Acrididae)","Karcsúsáska-formák (Gomphocerinae)","Euchorthippus pulvinatus (Fischer de Waldheim, 1846)",,"Karcsú rétisáska ",,,,"Euchorthippus pulvinatus"
"Egyenesszárnyúak (Orthopteroida)","Tojókampósok (Caelifera)","Sáskaszerűek (Acridodea)","Sáskafélék (Acridoidea)","Sáskák (Acrididae)","Karcsúsáska-formák (Gomphocerinae)","Stenobothrus stigmaticus (Rambur, 1838)","Acridium parvulus (Herrich-Schäffer, 1840)|Chorthippus rambur (Fieber, 1852)","Kis rétisáska ",,,,"Stenobothrus stigmaticus"
"Egyenesszárnyúak (Orthopteroida)","Tojókampósok (Caelifera)","Sáskaszerűek (Acridodea)","Sáskafélék (Acridoidea)","Sáskák (Acrididae)","Karcsúsáska-formák (Gomphocerinae)","Euthystira brachyptera (Ocskay, 1826)","Acridium abbreviatum (Herrich-Schäffer, 1840)|Podisma longicrus (Fischer von Waldheim, 1846)|Gryllus ocskayi (Fischer von Waldheim, 1846)|Acridium smaragdulum (Herrich-Schäffer, 1840)|Chrysochraon brachyptera chrysoberyllu (Fruhstorfer, 1921)|Oedipoda homopter (Eversmann, 1848)|Oedipoda leucoptera (Fischer von Waldheim, 1846)|Chorthippus ocskayi (Fieber, 1853)|Chrysochraon brachypterus variety subcaerule (Puschnig, 1910)","Smaragdzöldsáska",,,,"Euthystira brachyptera"
"Egyenesszárnyúak (Orthopteroida)","Tojókampósok (Caelifera)","Sáskaszerűek (Acridodea)","Sáskafélék (Acridoidea)","Sáskák (Acrididae)","Karcsúsáska-formák (Gomphocerinae)","Chrysochraon dispar (Germar, 1834)","Gryllus platypteru (Ocskay, 1832)|Chrysochraon dispar variety macropter (Chopard, 1922)|Podisma smilacea (Fischer von Waldheim, 1846)","Aranyossáska ",,,,"Chrysochraon dispar"
"Egyenesszárnyúak (Orthopteroida)","Tojókampósok (Caelifera)","Sáskaszerűek (Acridodea)","Sáskafélék (Acridoidea)","Sáskák (Acrididae)","Karcsúsáska-formák (Gomphocerinae)","Myrmeleotettix maculatus (Thunberg, 1815)","Gomphocerus annulatus Fischer vo (Waldheim, 1833)|Myrmeleotettix australi (Harz, 1975)|Gryllus biguttatus (Charpentier, 1825)|Gryllus biguttulu (Panzer, 1796)|Gomphocerus calidoniensi (Stephens, 1835)|Gomphocerus elegan (Stephens, 1835)|Gomphocerus ericetariu (Stephens, 1835)|Myrmeleotettix hispanicu (Harz, 1975)|Oedipoda pulla (Fischer von Waldheim, 1846)|Gryllus rufu (Zetterstedt, 1821)|Stenobothrus saussure (Seoane, 1879)","Kis bunkóscsápúsáska ",,,,"Myrmeleotettix maculatus"
"Egyenesszárnyúak (Orthopteroida)","Tojókampósok (Caelifera)","Sáskaszerűek (Acridodea)","Sáskafélék (Acridoidea)","Sáskák (Acrididae)","Karcsúsáska-formák (Gomphocerinae)","Gomphocerippus rufus (Linnaeus, 1758)","Acridium clavicorne (D Geer, 1773)","Erdei bunkóscsápúsáska ",,,,"Gomphocerippus rufus"
"Egyenesszárnyúak (Orthopteroida)","Tojókampósok (Caelifera)","Sáskaszerűek (Acridodea)","Sáskafélék (Acridoidea)","Sáskák (Acrididae)","Karcsúsáska-formák (Gomphocerinae)","Myrmeleotettix antennatus (Fieber, 1853)",,"Homoki bunkóscsápúsáska ",,,,"Myrmeleotettix antennatus"
"Egyenesszárnyúak (Orthopteroida)","Tojókampósok (Caelifera)","Sáskaszerűek (Acridodea)","Sáskafélék (Acridoidea)","Sáskák (Acrididae)","Karcsúsáska-formák (Gomphocerinae)","Omocestus minutus (Brullé, 1832)",,"Apró tarlósáska ",,,,"Omocestus minutus"
"Egyenesszárnyúak (Orthopteroida)","Tojókampósok (Caelifera)","Sáskaszerűek (Acridodea)","Sáskafélék (Acridoidea)","Sáskák (Acrididae)","Karcsúsáska-formák (Gomphocerinae)","Omocestus haemorrhoidalis (Charpentier, 1825)","Omocestus haemorrhoidalis hyalosuperficie (Voroncovskij, 1928)|Stenobothrus montivagu (Azam, 1908)|Stenobothrus haemorrhoidalis variety nebulosa (Brunner von Wattenwyl, 1882)|Omocestus haemorrhoidalis variety obscuru (Schirmer, 1913)|Omocestus haemorrhoidalis robustio (Zacher, 1917)|Omocestus haemorrhoidalis variety viridi (Schirmer, 1913)","Barna tarlósáska ",,,,"Omocestus haemorrhoidalis"
"Egyenesszárnyúak (Orthopteroida)","Tojókampósok (Caelifera)","Sáskaszerűek (Acridodea)","Sáskafélék (Acridoidea)","Sáskák (Acrididae)","Karcsúsáska-formák (Gomphocerinae)","Omocestus petraeus (Brisout de Barneville, 1856)","Omocestus petraeus psamophilu (Maran, 1954)|Omocestus tesquoru (Tarbinsky, 1930)|Omocestus toscanu (Schmidt, 1967)","Szőke tarlósáska",,,,"Omocestus petraeus"
"Egyenesszárnyúak (Orthopteroida)","Tojókampósok (Caelifera)","Sáskaszerűek (Acridodea)","Sáskafélék (Acridoidea)","Sáskák (Acrididae)","Karcsúsáska-formák (Gomphocerinae)","Omocestus rufipes (Zetterstedt, 1821)","Oedipoda cruentat (Brullé, 1832)|Oedipoda geniculat (Brullé, 1832)|Locusta miniat (Stephens, 1835)|Gryllus ventrali (Zetterstedt, 1821)|Acridium viridulu (Wesmaël, 1838)|Chorthippus zetterstedt (Fieber, 1852)","Vöröshasú tarlósáska ",,,,"Omocestus rufipes"
"Egyenesszárnyúak (Orthopteroida)","Tojókampósok (Caelifera)","Sáskaszerűek (Acridodea)","Sáskafélék (Acridoidea)","Sáskák (Acrididae)","Karcsúsáska-formák (Gomphocerinae)","Omocestus viridulus (Linnaeus, 1758)","Locusta apric (Stephens, 1835)|Gryllus dimidiatus (Thunberg, 1815)|Gryllus marginalis (Thunberg, 1815)|Gryllus ventrali (Zetterstedt, 1821)|Acrydium nigroterminatum (D Geer, 1793)|Gryllus rufescen (Ström, 1783)|Acrydium rufomarginatum (D Geer, 1773)|Omocestus viridulus variety rufoviolaceu (Schirmer, 1913)|Omocestus viridulus variety unicolo (Schirmer, 1913)","Zöld tarlósáska ",,,,"Omocestus viridulus"
"Egyenesszárnyúak (Orthopteroida)","Tojókampósok (Caelifera)","Sáskaszerűek (Acridodea)","Sáskafélék (Acridoidea)","Sáskák (Acrididae)","Karcsúsáska-formák (Gomphocerinae)","Stauroderus scalaris (Fischer de Waldheim, 1846)","Oedipoda discoidali (Eversmann, 1848)|Gomphocerus melanopteru (Borck, 1848)|Gryllus morio (Charpentier, 1825)|Chorthippus pyrenaeu (Saulcy, 1887)","Hangos hegyisáska ",,,,"Stauroderus scalaris"
"Egyenesszárnyúak (Orthopteroida)","Tojókampósok (Caelifera)","Sáskaszerűek (Acridodea)","Sáskafélék (Acridoidea)","Sáskák (Acrididae)","Karcsúsáska-formák (Gomphocerinae)","Stenobothrus eurasius (Zubowskii, 1898)",,"Eurázsiai rétisáska ","Védett","N","50000","Stenobothrus eurasius"
"Egyenesszárnyúak (Orthopteroida)","Tojókampósok (Caelifera)","Sáskaszerűek (Acridodea)","Sáskafélék (Acridoidea)","Sáskák (Acrididae)","Karcsúsáska-formák (Gomphocerinae)","Stenobothrus crassipes (Charpentier, 1825)",,"Rövidszárnyú vagy szárnyatlan rétisáska",,,,"Stenobothrus crassipes"
"Egyenesszárnyúak (Orthopteroida)","Tojókampósok (Caelifera)","Sáskaszerűek (Acridodea)","Sáskafélék (Acridoidea)","Sáskák (Acrididae)","Karcsúsáska-formák (Gomphocerinae)","Stenobothrus lineatus (Panzer, 1796)","Stenobothrus lineatus interposit (Fruhstorfer, 1921)|Acridium megacephalu (Seidl, 1837)|Acridium lineatus punctatifron (Ivanov, 1888)|Gryllus (Locusta) rubicundu (Gmelin, 1788)|Gryllus (Locusta) rubicundus (D Geer, 1778)|Gryllus (Locusta) tenellu (Stoll, 1813)|Stenobothrus lineatus variety violace (Shugurov, 1907)","Jajgató rétisáska ",,,,"Stenobothrus lineatus"
"Egyenesszárnyúak (Orthopteroida)","Tojókampósok (Caelifera)","Sáskaszerűek (Acridodea)","Sáskafélék (Acridoidea)","Sáskák (Acrididae)","Karcsúsáska-formák (Gomphocerinae)","Stenobothrus nigromaculatus (Herrich-Schaeffer, 1840)","Stenobothrus bulgaricu (Ramme, 1933)|Stenobothrus nigromaculatus insolitu (Tarbinsky, 1928)|Stenobothrus nigromaculatus istrianu (Krauss, 1879)|Oedipoda luteicornis (Fischer von Waldheim, 1846)|Acridium stigmaticum (Brisout d Barneville, 1848)","Sztyepréti sáska ",,,,"Stenobothrus nigromaculatus"
"Egyenesszárnyúak (Orthopteroida)","Tojókampósok (Caelifera)","Sáskaszerűek (Acridodea)","Sáskafélék (Acridoidea)","Sáskák (Acrididae)","Karcsúsáska-formák (Gomphocerinae)","Stenobothrus fischeri (Eversmann, 1848)","Stenobothrus nigrogeniculatu (Krauss, 1879)|Stenobothrus fischeri variety prasin (Voroncovskij, 1927)","Fischer-rétisásáka",,,,"Stenobothrus fischeri"
"Egyenesszárnyúak (Orthopteroida)","Tojókampósok (Caelifera)","Sáskaszerűek (Acridodea)","Sáskafélék (Acridoidea)","Sáskák (Acrididae)","Vaskossáska-formák (Oedipodinae)","Acrotylus insubricus (Scopoli, 1786)",,"Önbeásósáska ",,,,"Acrotylus insubricus"
"Egyenesszárnyúak (Orthopteroida)","Tojókampósok (Caelifera)","Sáskaszerűek (Acridodea)","Sáskafélék (Acridoidea)","Sáskák (Acrididae)","Vaskossáska-formák (Oedipodinae)","Sphingonotus caerulans (Linnaeus, 1758)","Acridium coerulan (Brullé, 1840)|Sphingonotus exornatus (Nedelkov, 1907)|Sphingonotus coerulans form intermedi (Ramme, 1911)|Sphingonotus linosa (Salfi, 1927)","Homokszínű sáska",,,,"Sphingonotus caerulans"
"Egyenesszárnyúak (Orthopteroida)","Tojókampósok (Caelifera)","Sáskaszerűek (Acridodea)","Sáskafélék (Acridoidea)","Sáskák (Acrididae)","Vaskossáska-formák (Oedipodinae)","Stethophyma grossum (Linnaeus, 1758)","Gryllus flavipe (Gmelin, 1788)|Gryllus (Locusta) germanicu (Stoll, 1813)|Acrydium rubripes D (Geer, 1773)","Tundrasáska ",,,,"Stethophyma grossum"
"Egyenesszárnyúak (Orthopteroida)","Tojócsövesek (Ensifera)","Tücsökalkatúak (Gryllidea)","Vakondtücsök félék (Gryllotalpoidea)","Vakondtücskök (Gryllotalpidae)",,"Gryllotalpa gryllotalpa (Linnaeus, 1758)","Gryllus talp (Olivier, 1791)|Gryllotalpa vulgaris (Latreille, 1804)","Közönséges lótücsök",,,,"Gryllotalpa gryllotalpa"
"Egyenesszárnyúak (Orthopteroida)","Tojócsövesek (Ensifera)","Tücsökalkatúak (Gryllidea)","Vakondtücsök félék (Gryllotalpoidea)","Vakondtücskök (Gryllotalpidae)",,"Gryllotalpa stepposa (Zhantiev, 1991)",,"Sztyeppei lótücsök",,,,"Gryllotalpa stepposa"
"Egyenesszárnyúak (Orthopteroida)","Tojócsövesek (Ensifera)","Tücsökalkatúak (Gryllidea)","Tücskök (Grylloidea)","Valóditücskök (Gryllide)","Feketetücsök-formák (Gryllinae)","Gryllus campestris (Linnaeus, 1758)","Gryllus campestris caudat (Krauss, 1886)|Gryllus cephalote (Ramme, 1921)|Acheta hybrid (Rambur, 1838)","Mezeitücsök",,,,"Gryllus campestris"
"Egyenesszárnyúak (Orthopteroida)","Tojócsövesek (Ensifera)","Tücsökalkatúak (Gryllidea)","Tücskök (Grylloidea)","Valóditücskök (Gryllide)","Feketetücsök-formák (Gryllinae)","Acheta domesticus (Linnaeus, 1758)","Gryllus aegyptiacu (Haan, 1842)|Acheta melanocephalu (Zacher, 1917)|Gryllus transversali (Walker, 1871)","Házitücsök",,,,"Acheta domesticus"
"Egyenesszárnyúak (Orthopteroida)","Tojócsövesek (Ensifera)","Tücsökalkatúak (Gryllidea)","Tücskök (Grylloidea)","Valóditücskök (Gryllide)","Feketetücsök-formák (Gryllinae)","Melanogryllus desertus (Pallas, 1771)","Acheta agricola (RAMB. 1839)","Feketetücsök",,,,"Melanogryllus desertus"
"Egyenesszárnyúak (Orthopteroida)","Tojócsövesek (Ensifera)","Tücsökalkatúak (Gryllidea)","Tücskök (Grylloidea)","Valóditücskök (Gryllide)","Feketetücsök-formák (Gryllinae)","Modicogryllus frontalis (Fieber, 1844)","Gryllus frontalis variety alat (Jacobson, 1904)|Gryllus caudatu (Singer, 1869)|Gryllus hermsdorfensi (Zeller, 1856)|Gryllus pubescen (Eversmann, 1859)|Acheta turanicus (Bey-Bienko, 1933)","Nyugati homlokjegyestücsök",,,,"Modicogryllus frontalis"
"Egyenesszárnyúak (Orthopteroida)","Tojócsövesek (Ensifera)","Tücsökalkatúak (Gryllidea)","Tücskök (Grylloidea)","Valóditücskök (Gryllide)","Feketetücsök-formák (Gryllinae)","Modicogryllus truncatus (Tarbinsky, 1940)","Modicogryllus chopard (Kis, 1967)","Déli homlokjegyestücsök","Védett",,"5000","Modicogryllus truncatus"
"Egyenesszárnyúak (Orthopteroida)","Tojócsövesek (Ensifera)","Tücsökalkatúak (Gryllidea)","Tücskök (Grylloidea)","Valóditücskök (Gryllide)","Feketetücsök-formák (Gryllinae)","Eumodicogryllus bordigalensis (Latreille, 1804)","Gryllus arvensi (Rambur, 1838)|Acheta bordigalensis (Charpentier, 1825)|Gryllus cerisyi (Serville, 1838)|Acheta chinensi (Weber, 1801)|Gryllus cinereu (Costa, 1852)|Gryllus eversmann (Jakovlev, 1871)|Gryllodes ferdinand (Bolívar, 1899)|Gryllus geminus (Serville, 1838)|Gryllus hygrophilu (Krauss, 1902)|Gryllus chinensis intermedi (Bolívar, 1927)|Gryllus marginatu (Eversmann, 1859)|Gryllus minusculu (Walker, 1869)|Gryllus pygmaeu (Walker, 1869)","Bordói tücsök",,,,"Eumodicogryllus bordigalensis"
"Egyenesszárnyúak (Orthopteroida)","Tojócsövesek (Ensifera)","Tücsökalkatúak (Gryllidea)","Tücskök (Grylloidea)","Trigonidiidae",,"Nemobius sylvestris (Bosc, 1792)",,"Erdeitücsök","Védett",,"5000","Nemobius sylvestris"
"Egyenesszárnyúak (Orthopteroida)","Tojókampósok (Caelifera)","Sáskaszerűek (Acridodea)","Sáskafélék (Acridoidea)","Sáskák (Acrididae)","Vaskossáska-formák (Oedipodinae)","Oedaleus decorus (Germar, 1826)",,"Szalagossáska ",,,,"Oedaleus decorus"
"Egyenesszárnyúak (Orthopteroida)","Tojókampósok (Caelifera)","Sáskaszerűek (Acridodea)","Sáskafélék (Acridoidea)","Sáskák (Acrididae)","Karcsúsáska-formák (Gomphocerinae)","Chorthippus (Glyptobothrus) apricarius (Linnaeus, 1758)","Gryllus flavipe (Gmelin, 1788)|Gryllus (Locusta) germanicu (Stoll, 1813)|Acrydium rubripes D (Geer, 1773)","Szélesszárnyú tarlósáska",,,,"Chorthippus (Glyptobothrus) apricarius"
"Egyenesszárnyúak (Orthopteroida)","Tojókampósok (Caelifera)","Sáskaszerűek (Acridodea)","Sáskafélék (Acridoidea)","Sáskák (Acrididae)","Karcsúsáska-formák (Gomphocerinae)","Chorthippus (Glyptobothrus) mollis (Charpentier, 1825)","Chorthippus salfii L (Greca, 1948)","Halk tarlósáska",,,,"Chorthippus (Glyptobothrus) mollis"
"Egyenesszárnyúak (Orthopteroida)","Tojókampósok (Caelifera)","Sáskaszerűek (Acridodea)","Sáskafélék (Acridoidea)","Sáskák (Acrididae)","Karcsúsáska-formák (Gomphocerinae)","Chorthippus (Glyptobothrus) vagans (Eversmann, 1848)","Gomphocerus subsinuatus (Fischer, 1849)|Chorthippus (Glyptobothrus) eckerlein (Harz, 1975)","Bolygó tarlósáska ",,,,"Chorthippus (Glyptobothrus) vagans"
"Egyenesszárnyúak (Orthopteroida)","Tojókampósok (Caelifera)","Sáskaszerűek (Acridodea)","Sáskafélék (Acridoidea)","Sáskák (Acrididae)","Karcsúsáska-formák (Gomphocerinae)","Chorthippus (Glyptobothrus) brunneus (Thunberg, 1815)","Gryllus bicolor (Charpentier, 1825)|Stenobothrus biguttulus bicolo (Obenberger, 1926)|Locusta biguttul (Stephens, 1835)|Stenobothrus bicolor variety brunner (Werner, 1902)|Locusta rhomboid (Stephens, 1835)|Locusta varipe (Stephens, 1835)|Locusta venus (Stephens, 1835)|Locusta vittat (Stephens, 1835)","Közönséges tarlósáska ",,,,"Chorthippus (Glyptobothrus) brunneus"
"Egyenesszárnyúak (Orthopteroida)","Tojókampósok (Caelifera)","Sáskaszerűek (Acridodea)","Sáskafélék (Acridoidea)","Sáskák (Acrididae)","Karcsúsáska-formák (Gomphocerinae)","Chorthippus (Glyptobothrus) biguttulus (Linnaeus, 1758)","Gomphocerus arvali (Burmeister, 1838)|Gryllus aureolu (Zetterstedt, 1821)|Gryllus auroru (Zetterstedt, 1821)|Stenobothrus (Stauroderus) biguttulus collinu (Obenberger, 1926)|Gryllus lunulatu (Scopoli, 1763)|Glyptobothrus hirtus mongolicu (Steinmann, 1967)|Gryllus mutabili (Panzer, 1804)|Stenobothrus variabilis nigrinu (Ivanov, 1888)|Gryllus notatus (Thunberg, 1815)|Chorthippus variabili (Fieber, 1852)","Zengő tarlósáska",,,,"Chorthippus (Glyptobothrus) biguttulus"
"Egyenesszárnyúak (Orthopteroida)","Tojócsövesek (Ensifera)","Szöcskealkatúak (Tettigoniidea)","Szöcskefélék (Tettigonioidea)","Lomhaszöcskék (Phaneropteridae)",,"Leptophyes boscii (Fieber, 1853)",,"Sárgászöld virágszöcske",,,,"Leptophyes boscii"
"Egyenesszárnyúak (Orthopteroida)","Tojókampósok (Caelifera)","Sáskaszerűek (Acridodea)","Sáskafélék (Acridoidea)","Sáskák (Acrididae)","Vaskossáska-formák (Oedipodinae)","Acrotylus longipes (Charpentier, 1845)",,"Homoki önbeásósáska v. dűnesáska","Védett",,"5000","Acrotylus longipes"
"Egyenesszárnyúak (Orthopteroida)","Tojókampósok (Caelifera)","Sáskaszerűek (Acridodea)","Sáskafélék (Acridoidea)","Sáskák (Acrididae)","Vaskossáska-formák (Oedipodinae)","Aiolopus thalassinus (Fabricius, 1781)","Aiolopus acutu (Uvarov, 1953)|Epacromia angustifemu (Ghiliani, 1869)|Gryllus flavovirens (Fischer von Waldheim, 1846)|Acridium grossu (Costa, 1836)|Aiolopus thalassinus kivuensi (Sjöstedt, 1923)|Acridium laetu (Brullé, 1840)|Epacromia rufipe (Ivanov, 1888)","Tenger-zöld sáska ",,,,"Aiolopus thalassinus"
"Egyenesszárnyúak (Orthopteroida)","Tojókampósok (Caelifera)","Sáskaszerűek (Acridodea)","Sáskafélék (Acridoidea)","Sáskák (Acrididae)","Vaskossáska-formák (Oedipodinae)","Aiolopus strepens (Latreille, 1804)","Gryllus prasinus (Thunberg, 1815)|Acridium vittatu (Brullé, 1840)","Déli áttelelősáska","Védett",,"5000","Aiolopus strepens"
"Egyenesszárnyúak (Orthopteroida)","Tojókampósok (Caelifera)","Sáskaszerűek (Acridodea)","Sáskafélék (Acridoidea)","Sáskák (Acrididae)","Vaskossáska-formák (Oedipodinae)","Celes variabilis (Pallas, 1771)",,"Változó vagy szerecsensáska ","Védett",,"5000","Celes variabilis"
"Egyenesszárnyúak (Orthopteroida)","Tojókampósok (Caelifera)","Sáskaszerűek (Acridodea)","Sáskafélék (Acridoidea)","Sáskák (Acrididae)","Vaskossáska-formák (Oedipodinae)","Locusta migratoria (Linnaeus, 1758)","Locusta cinerascen (Fabricius, 1781)|Pachytylus australi (Saussure, 1884)|Gryllus (Locusta) danic (Linnaeus, 1767)|Locusta gallic (Remaudičre, 1947)|Locusta migratoria migratoria form remaudiere (Harz, 1962)|Locusta rossica (Uvarov & Zolotarevsky, 1929)|Locusta migratoria solitari (Carthy, 1955)|Locusta migratoria cinerascens (Fabricius, 1781)","Európai vándorsáska ","Védett",,"10000","Locusta migratoria"
"Egyenesszárnyúak (Orthopteroida)","Tojókampósok (Caelifera)","Sáskaszerűek (Acridodea)","Sáskafélék (Acridoidea)","Sáskák (Acrididae)","Vaskossáska-formák (Oedipodinae)","Mecosthetus parapleurus (Hagenbach, 1822)","Gryllus alliaceu (Germar, 1825)|Parapleurus fastigiatu (Rehn, 1902)|Parapleurus typus (Fischer, 1853)","Hagymazöld sáska ",,,,"Mecosthetus parapleurus"
"Egyenesszárnyúak (Orthopteroida)","Tojókampósok (Caelifera)","Sáskaszerűek (Acridodea)","Sáskafélék (Acridoidea)","Sáskák (Acrididae)","Vaskossáska-formák (Oedipodinae)","Oedipoda coerulescens (Linnaeus, 1758)","Acrydium coeruleipenne D (Geer, 1773)|Ctyphippus caerulescens coerulescen (Seoane, 1878)|Oedipoda fasciat (Stĺl, 1873)","Kékszárnyú sáska ",,,,"Oedipoda coerulescens"
"Egyenesszárnyúak (Orthopteroida)","Tojókampósok (Caelifera)","Sáskaszerűek (Acridodea)","Sáskafélék (Acridoidea)","Sáskák (Acrididae)","Vaskossáska-formák (Oedipodinae)","Psophus stridulus (Linnaeus, 1758)","Psophus stridulus variety ebner (Karny, 1910)|Psophus stridulus samniticu (Baccetti, 1959)","Kereplősáska",,,,"Psophus stridulus"
