"species_name","eszmei_ertek"
"Acherontia atropos","10000"
"Acasis appensata","10000"
"Accipiter brevipes","500000"
"Accipiter gentilis","50000"
"Accipiter gentilis buteoides","50000"
"Accipiter nisus","50000"
"Lacon querceus","10000"
"Adscita geryon","5000"
"Aegithalos caudatus","25000"
"Aegolius funereus","50000"
"Aegosoma scabricorne","5000"
"Aegypius monachus","250000"
"Aesalus scarabaeoides","5000"
"Acanthaclisis occitanica","10000"
"Acanthocinus aedilis","5000"
"Ablepharus kitaibelii fitzingeri","100000"
"Abrostola agnorista","10000"
"Aeshna viridis","100000"
"Acinopus ammophilus","10000"
"Acinopus picipes","10000"
"Acipenser gueldenstaedtii","50000"
"Acipenser nudiventris","50000"
"Acipenser stellatus","50000"
"Acmaeodera degener","5000"
"Acmaeoderella mimonti","5000"
"Acrida ungarica","50000"
"Acrocephalus agricola","25000"
"Acrocephalus agricola septima","10000"
"Acrocephalus arundinaceus","25000"
"Acrocephalus melanopogon","50000"
"Acrocephalus paludicola","1000000"
"Acrocephalus palustris","25000"
"Acrocephalus schoenobaenus","25000"
"Acrocephalus scirpaceus","25000"
"Acrotylus longipes","5000"
"Actebia praecox","10000"
"Actites hypoleucos","50000"
"Agapanthia maculicornis","5000"
"Agapanthiola leucaspis","5000"
"Agdistis intermedia","10000"
"Aglais urticae","50000"
"Aglia tau","5000"
"Agnathus decoratus","50000"
"Agnetina elegantula","5000"
"Agrilus guerini","10000"
"Aiolopus strepens","5000"
"Akimerus schaefferi","10000"
"Alauda arvensis","25000"
"Alauda arvensis cantarella","10000"
"Alauda arvensis dulcivox","10000"
"Albocosta musiva","10000"
"Alburnoides bipunctatus","10000"
"Alca torda","25000"
"Alcedo atthis","50000"
"Alcedo atthis ispida","50000"
"Algedonia luctualis","10000"
"Alosa pontica","5000"
"Ametropus fragilis","5000"
"Ampedus quadrisignatus","50000"
"Amphimelania holandrii","10000"
"Amphipoea lucens","5000"
"Aeshna isoceles","5000"
"Saperda similis","50000"
"Anarta myrtilli","50000"
"Anas acuta","50000"
"Anas carolinensis","10000"
"Anas clypeata","50000"
"Anas crecca","50000"
"Anas penelope","50000"
"Anas querquedula","100000"
"Anas strepera","50000"
"Anguis fragilis","25000"
"Anisus vorticulus","5000"
"Anser anser","50000"
"Anser anser rubrirostris","50000"
"Anser brachyrhynchus","25000"
"Anser caerulescens","10000"
"Anser caerulescens atlanticus","10000"
"Anser erythropus","1000000"
"Anser indicus","10000"
"Anthaxia candens","10000"
"Anthaxia hackeri","10000"
"Anthaxia hungarica","10000"
"Anthaxia plicata","10000"
"Anthaxia tuerki","10000"
"Anthropoides virgo","50000"
"Anthus campestris","50000"
"Anthus cervinus","25000"
"Anthus pratensis","25000"
"Anthus richardi","10000"
"Anthus spinoletta","25000"
"Anthus trivialis","25000"
"Apamea platinea","10000"
"Apamea sicula tallosi","5000"
"Apatania muliebris","50000"
"Apatura ilia","10000"
"Apatura iris","50000"
"Apatura metis","100000"
"Apaustis rupicola","10000"
"Dermestoides sanguinicollis","50000"
"Apus apus","25000"
"Tachymarptis melba","25000"
"Apus pallidus","25000"
"Aquarius najas","5000"
"Aquila chrysaetos","500000"
"Aquila clanga","500000"
"Aquila heliaca","1000000"
"Aquila nipalensis","250000"
"Aquila nipalensis orientalis","50000"
"Aquila pomarina","1000000"
"Araneus grossus","5000"
"Archiearis notha","5000"
"Archiearis parthenias","10000"
"Archiearis puella","5000"
"Arctia festiva","10000"
"Arcyptera fusca","10000"
"Arcyptera microptera","10000"
"Ardea cinerea","50000"
"Ardea purpurea","250000"
"Ardeola bacchus","10000"
"Ardeola ralloides","500000"
"Arenaria interpres","25000"
"Arethusana arethusa","5000"
"Argiope lobata","5000"
"Argynnis laodice","50000"
"Argynnis niobe","10000"
"Argynnis pandora","5000"
"Argynnis paphia","5000"
"Argyroneta aquatica","5000"
"Arichanna melanaria","10000"
"Plebeius agestis","5000"
"Plebeius artaxerxes","50000"
"Plebeius artaxerxes issekutzi","10000"
"Plebeius eumedon","10000"
"Aromia moschata","5000"
"Arytrura musculus","250000"
"Asio flammeus","250000"
"Asio otus","50000"
"Astacus astacus","50000"
"Astacus leptodactylus","50000"
"Asteroscopus syriaca decipulae","100000"
"Atethmia ambusta","10000"
"Athene noctua","100000"
"Atypus affinis","5000"
"Atypus muralis","5000"
"Atypus piceus","5000"
"Austropotamobius torrentium","50000"
"Autographa bractea","10000"
"Autographa jota","10000"
"Aythya affinis","20000"
"Aythya collaris","20000"
"Aythya ferina","50000"
"Aythya fuligula","50000"
"Aythya marila","50000"
"Aythya nyroca","500000"
"Barbastella barbastellus","100000"
"Barbatula barbatula","10000"
"Barbus meridionalis","100000"
"Barbus peloponnesius","100000"
"Barbus carpathicus","100000"
"Batazonellus lacerticida","5000"
"Besdolus ventralis","10000"
"Bielzia coerulans","5000"
"Blaps abbreviata","10000"
"Bolbelasmus unicornis","50000"
"Boloria euphrosyne","5000"
"Boloria selene","10000"
"Bombina bombina","10000"
"Bombina variegata","50000"
"Bombus argillaceus","50000"
"Bombus confusus","10000"
"Bombus fragrans","100000"
"Bombus humilis","5000"
"Bombus laesus","10000"
"Bombus muscorum","10000"
"Bombus paradoxus","10000"
"Bombus pomorum","10000"
"Bombus ruderatus","5000"
"Bombus soroeensis","5000"
"Bombus subterraneus","5000"
"Bombus sylvarum","5000"
"Bombycilla garrulus","25000"
"Bonasa bonasia","500000"
"Bonasa bonasia rupestris","500000"
"Borysthenia naticina","5000"
"Botaurus stellaris","100000"
"Brachinus bipustulatus","10000"
"Brachycercus europaeus","5000"
"Brachyptera braueri","5000"
"Brachysomus mihoki","10000"
"Branta bernicla","50000"
"Branta leucopsis","25000"
"Branta ruficollis","1000000"
"Brenthis daphne","5000"
"Brenthis hecate","5000"
"Brenthis ino","50000"
"Bubo bubo","500000"
"Bubulcus ibis","25000"
"Bucephala clangula","50000"
"Bufo bufo","10000"
"Bufo viridis","10000"
"Burhinus oedicnemus","500000"
"Buteo buteo","25000"
"Buteo buteo vulpinus","10000"
"Buteo lagopus","50000"
"Buteo rufinus","100000"
"Bythiospeum hungaricum","10000"
"Calamobius filum","5000"
"Calandrella brachydactyla","500000"
"Calandrella brachydactyla hungarica","250000"
"Calcarius lapponicus","25000"
"Calidris alba","25000"
"Calidris alpina","25000"
"Calidris alpina schinzii","10000"
"Calidris bairdii","20000"
"Calidris canutus","25000"
"Calidris ferruginea","25000"
"Calidris fuscicollis","10000"
"Calidris maritima","25000"
"Calidris melanotos","25000"
"Calidris minuta","25000"
"Calidris pusilla","20000"
"Calidris temminckii","25000"
"Calliptamus barbarus","5000"
"Calopteryx virgo","5000"
"Calosoma auropunctatum","5000"
"Calosoma inquisitor","5000"
"Calosoma sycophanta","5000"
"Calyciphora xanthodactyla","5000"
"Camptorhinus simplex","10000"
"Camptorhinus statua","10000"
"Canis lupus","250000"
"Capnodis tenebrionis","5000"
"Caprimulgus europaeus","50000"
"Caprimulgus europaeus meridionalis","50000"
"Carabus arvensis","10000"
"Carabus arvensis austriae","10000"
"Carabus arvensis carpathus","10000"
"Carabus auronitens","10000"
"Carabus auronitens kraussi","10000"
"Carabus cancellatus","5000"
"Carabus cancellatus adeptus","2000"
"Carabus cancellatus budensis","2000"
"Carabus cancellatus durus","2000"
"Carabus cancellatus maximus","2000"
"Carabus cancellatus muehlfeldi","2000"
"Carabus cancellatus soproniensis","2000"
"Carabus cancellatus tibiscinus","2000"
"Carabus cancellatus ungensis","2000"
"Carabus clatratus","10000"
"Carabus clatratus auraniensis","10000"
"Carabus convexus","5000"
"Carabus convexus kiskunensis","2000"
"Carabus convexus simplicipennis","2000"
"Carabus coriaceus","5000"
"Carabus coriaceus praeillyricus","2000"
"Carabus coriaceus pseudorugifer","2000"
"Carabus coriaceus rugifer","2000"
"Carabus germarii","5000"
"Carabus germarii exasperatus","2000"
"Carabus glabratus","5000"
"Carabus granulatus","5000"
"Carabus hampei","100000"
"Carabus hampei ormayi","100000"
"Carabus hortensis","5000"
"Carabus hungaricus","100000"
"Carabus intricatus","5000"
"Carabus irregularis","10000"
"Carabus irregularis cephalotes","10000"
"Carabus linnaei","10000"
"Carabus linnaei transdanubialis","10000"
"Carabus marginalis","50000"
"Carabus montivagus","10000"
"Carabus montivagus blandus","10000"
"Carabus nemoralis","5000"
"Carabus nodulosus","100000"
"Carabus obsoletus","10000"
"Carabus problematicus","10000"
"Carabus problematicus holdhausi","10000"
"Carabus scabriusculus","5000"
"Carabus scabriusculus lippii","2000"
"Carabus scheidleri","10000"
"Carabus scheidleri baderlei","10000"
"Carabus scheidleri distinguendus","10000"
"Carabus scheidleri helleri","10000"
"Carabus scheidleri jucundus","10000"
"Carabus scheidleri pannonicus","10000"
"Carabus scheidleri praescheidleri","10000"
"Carabus scheidleri pseudopreyssleri","10000"
"Carabus scheidleri vertesensis","10000"
"Carabus ullrichii","5000"
"Carabus ullrichii baranyensis","5000"
"Carabus ullrichii planitiae","5000"
"Carabus ullrichii sokolari","5000"
"Carabus variolosus","100000"
"Carabus violaceus","5000"
"Carabus violaceus betuliae","2000"
"Carabus violaceus pseudoviolaceus","2000"
"Carabus violaceus rakosiensis","2000"
"Carabus scheidleri zawadzkii","100000"
"Carabus scheidleri dissimilis","100000"
"Carabus scheidleri ronayi","100000"
"Carcharodus lavatherae","50000"
"Cardoria scutellata","10000"
"Carduelis cannabina","25000"
"Carduelis carduelis","25000"
"Chloris chloris","25000"
"Carduelis flammea","25000"
"Carduelis flammea cabaret","10000"
"Carduelis flavirostris","25000"
"Carduelis hornemanni","25000"
"Carduelis hornemanni exilipes","10000"
"Carduelis spinus","25000"
"Carinatodorcadion fulvum cervae","5000"
"Carinatodorcadion fulvum","100000"
"Carpodacus erythrinus","25000"
"Carpodacus roseus","10000"
"Castor fiber","50000"
"Catocala conversa","10000"
"Catocala dilecta","10000"
"Catocala diversa","10000"
"Catocala fraxini","5000"
"Catopta thrips","250000"
"Celes variabilis","5000"
"Cellariopsis deubeli","5000"
"Cepaea hortensis","5000"
"Cepaea nemoralis","5000"
"Ceraclea nigronervosa","10000"
"Cerambyx cerdo","50000"
"Cerambyx miles","50000"
"Cerambyx scopolii","5000"
"Cerambyx welensii","50000"
"Ceriagrion tenellum","2000"
"Certhia brachydactyla","25000"
"Certhia familiaris","25000"
"Certhia familiaris macrodactyla","10000"
"Protaetia aeruginosa","5000"
"Cettia cetti","25000"
"Chaetopteryx rugulosa","100000"
"Chaetopteryx schmidi mecsekensis","100000"
"Alburnus chalcoides mento","10000"
"Chalcophora mariana","5000"
"Chamaesphecia doleriformis colpiformis","5000"
"Chamaesphecia hungarica","5000"
"Chamaesphecia palustris","5000"
"Charadrius alexandrinus","1000000"
"Charadrius dubius","50000"
"Charadrius hiaticula","25000"
"Charadrius hiaticula tundrae","10000"
"Charadrius leschenaultii","25000"
"Charadrius leschenaultii columbinus","50000"
"Charadrius morinellus","50000"
"Charadrius vociferus","10000"
"Chariaspilates formosaria","10000"
"Kemtrognophos ambiguata","10000"
"Neognophina intermedia","50000"
"Neognophina intermedia budensis","50000"
"Costignophos pullata","5000"
"Euchrognophos variegata","50000"
"Chazara briseis","50000"
"Cheironitis ungaricus","10000"
"Chersotis cuprea","10000"
"Chersotis fimbriola","50000"
"Chersotis fimbriola baloghi","50000"
"Chesias legatella","10000"
"Chesias rufata","10000"
"Chettusia gregaria","500000"
"Chettusia leucura","10000"
"Chlaenius festivus","10000"
"Agostenus sulcicollis","50000"
"Chlidonias hybridus","100000"
"Chlidonias leucopterus","250000"
"Chlidonias niger","250000"
"Chlorophorus hungaricus","5000"
"Chondrosoma fiduciaria","100000"
"Cicada orni","5000"
"Cylindera arenaria","10000"
"Cicindela campestris","5000"
"Cylindera germanica","5000"
"Cicindela hybrida","10000"
"Lophyridia littoralis","10000"
"Cicindela soluta","10000"
"Cicindela sylvicola","10000"
"Cicindela hybrida transversalis","10000"
"Ciconia ciconia","100000"
"Ciconia nigra","500000"
"Cinclus cinclus","500000"
"Cinclus cinclus aquaticus","250000"
"Circaetus gallicus","1000000"
"Circus aeruginosus","50000"
"Circus cyaneus","50000"
"Circus macrourus","250000"
"Circus pygargus","500000"
"Clangula hyemalis","250000"
"Clytus tropicus","10000"
"Cobitis elongatoides","10000"
"Coccothraustes coccothraustes","25000"
"Cochlodina cerata","10000"
"Cochlodina orthostoma","10000"
"Coenagrion hastulatum","5000"
"Coenagrion lunulatum","5000"
"Coenagrion ornatum","10000"
"Coenagrion scitulum","5000"
"Coenocalpe lapidata","10000"
"Coenonympha oedippus","250000"
"Coleophora hungariae","5000"
"Colias chrysotheme","100000"
"Colias myrmidone","100000"
"Coluber caspius","500000"
"Columba oenas","50000"
"Copris lunaris","5000"
"Copris umbilicatus","50000"
"Coracias garrulus","500000"
"Coraebus florentinus","10000"
"Coraebus undatus","50000"
"Cordulegaster bidentata","100000"
"Cordulegaster heros","100000"
"Coronella austriaca","50000"
"Cortodera flavimana","5000"
"Cortodera holosericea","10000"
"Corvus corax","50000"
"Corvus corone","25000"
"Corvus frugilegus","50000"
"Corvus monedula","50000"
"Corvus monedula soemmeringi","10000"
"Corvus monedula spermologus","10000"
"Coscinia cribaria","10000"
"Cottus gobio","50000"
"Cottus poecilopus","5000"
"Coturnix coturnix","50000"
"Creoleon plumbeus","5000"
"Crex crex","500000"
"Crocidura leucodon","25000"
"Crocidura suaveolens","25000"
"Cryphaeus cornutus","10000"
"Cucujus cinnaberinus","5000"
"Cucullia argentea","10000"
"Cucullia asteris","5000"
"Cucullia balsamitae","10000"
"Cucullia campanulae","50000"
"Cucullia chamomillae","5000"
"Cucullia dracunculi","50000"
"Cucullia formosa","100000"
"Cucullia gnaphalii","50000"
"Cucullia lucifuga","10000"
"Cucullia mixta lorica","100000"
"Cucullia scopariae","10000"
"Cucullia tanaceti","5000"
"Cucullia xeranthemi","10000"
"Cuculus canorus","50000"
"Cupido alcetas","5000"
"Cupido decolorata","5000"
"Cupido osiris","50000"
"Cychrus attenuatus","5000"
"Cychrus caraboides","5000"
"Diaphora luctuosa","50000"
"Cygnus columbianus","50000"
"Cygnus bewickii","50000"
"Cygnus cygnus","50000"
"Cygnus olor","1000"
"Cymindis miliaris","50000"
"Dasypoda suripes","5000"
"Delichon urbicum","50000"
"Dendrocopos leucotos","250000"
"Dendrocopos major","25000"
"Dendrocopos major pinetorum","10000"
"Dendrocopos medius","50000"
"Dendrocopos minor","50000"
"Dendrocopos minor hortorum","10000"
"Dendrocopos syriacus","25000"
"Dendroleon pantherinus","50000"
"Deroplia genei","10000"
"Diachrysia chryson","50000"
"Diachrysia nadeja","50000"
"Diachrysia zosimi","50000"
"Diarsia dahlii","5000"
"Dicerca aenea","10000"
"Dicerca alni","10000"
"Dicerca berolinensis","10000"
"Dicerca furcata","50000"
"Dichagyris candelisequa","10000"
"Dichonia aeruginea","10000"
"Dicranura ulmi","5000"
"Dinodes decipiens","10000"
"Dioszeghyana schmidti","100000"
"Venusia blomeri","10000"
"Discus ruderatus","5000"
"Distoleon tetragrammicus","5000"
"Divaena haywardi","10000"
"Dixus clypeatus","10000"
"Dolichosoma femorale","10000"
"Dolomedes fimbriatus","5000"
"Dolomedes plantarius","5000"
"Dorcus parallelipipedus","5000"
"Drobacia banatica","50000"
"Drusus trifidus","10000"
"Drymonia velitaris","10000"
"Dryocopus martius","50000"
"Dryomys nitedula","100000"
"Duvalius gebhardti","50000"
"Duvalius hungaricus","50000"
"Dyscia conspersaria","5000"
"Dytiscus latissimus","50000"
"Casmerodius albus","100000"
"Egretta garzetta","250000"
"Egretta gularis","50000"
"Elaphe longissima","50000"
"Elater ferrugineus","50000"
"Emberiza cia","100000"
"Emberiza cirlus","50000"
"Emberiza citrinella","25000"
"Emberiza hortulana","500000"
"Emberiza leucocephalos","25000"
"Emberiza melanocephala","25000"
"Emberiza pusilla","25000"
"Emberiza schoeniclus","25000"
"Emberiza schoeniclus intermedia","10000"
"Emberiza schoeniclus stresemanni","10000"
"Emberiza schoeniclus tschusii","10000"
"Emberiza schoeniclus ukrainae","10000"
"Emys orbicularis","50000"
"Ena montana","5000"
"Enargia abluta","10000"
"Endromis versicolora","5000"
"Ennomos quercaria","5000"
"Entephria caesiata","10000"
"Entephria cyanata","100000"
"Epacromius coerulipes","5000"
"Epacromius tergestinus","2000"
"Serratella mesoleuca","5000"
"Ephoron virgo","10000"
"Epimecia ustula","50000"
"Epirranthis diversata","50000"
"Epitheca bimaculata","5000"
"Eptesicus nilssoni","25000"
"Eptesicus serotinus","25000"
"Erannis ankeraria","100000"
"Erebia aethiops","50000"
"Erebia ligea","10000"
"Erebia medusa","5000"
"Eremodrina gilva","5000"
"Eremophila alpestris","50000"
"Eremophila alpestris flava","50000"
"Eresus kollari","5000"
"Ergates faber","50000"
"Erinaceus concolor","25000"
"Erinaceus concolor roumanicus","10000"
"Eriogaster catax","50000"
"Eriogaster lanestris","10000"
"Eriogaster rimicola","10000"
"Erithacus rubecula","25000"
"Fagotia daudebartii acicularis","5000"
"Fagotia esperi","5000"
"Eublemma panonica","250000"
"Eublemma rosea","50000"
"Euchalcia modestoides","10000"
"Euchalcia variabilis","10000"
"Eucrostes indigenata","10000"
"Eudontomyzon danfordi","250000"
"Eudontomyzon mariae","100000"
"Eumannia lepraria","10000"
"Euphydryas aurinia","50000"
"Euphydryas maturna","50000"
"Euphyia scripturata","10000"
"Eupithecia actaeata","10000"
"Eupithecia denticulata","5000"
"Eupithecia graphata","5000"
"Euplagia quadripunctaria","5000"
"Protaetia affinis","10000"
"Eurylophella karelica","100000"
"Eurythyrea aurata","10000"
"Eurythyrea quercus","100000"
"Euxoa birivia","10000"
"Euxoa decora","10000"
"Euxoa distinguenda","10000"
"Euxoa hastifera pomazensis","5000"
"Euxoa vitta","50000"
"Falco cherrug","1000000"
"Falco cherrug cyanopus","1000000"
"Falco columbarius","50000"
"Falco columbarius aesalon","50000"
"Falco eleonorae","250000"
"Falco naumanni","500000"
"Falco peregrinus","500000"
"Falco peregrinus calidus","500000"
"Falco subbuteo","50000"
"Falco tinnunculus","50000"
"Falco vespertinus","500000"
"Felis silvestris","250000"
"Ficedula albicollis","25000"
"Ficedula hypoleuca","25000"
"Ficedula parva","100000"
"Fratercula arctica","25000"
"Fratercula arctica grabae","10000"
"Fringilla coelebs","25000"
"Fringilla montifringilla","25000"
"Furcula bicuspis","5000"
"Gagitodes sagittata","10000"
"Galerida cristata","50000"
"Galerida cristata tenuirostris","10000"
"Gallinago gallinago","100000"
"Gallinago media","250000"
"Gallinula chloropus","25000"
"Gampsocleis glabra","5000"
"Gasterocercus depressirostris","10000"
"Tituboea macropus","2000"
"Gavia arctica","25000"
"Gavia immer","25000"
"Gavia stellata","25000"
"Gelochelidon nilotica","50000"
"Geolycosa vultuosa","5000"
"Glareola nordmanni","500000"
"Glareola pratincola","500000"
"Glaresis rufa","10000"
"Glaucidium passerinum","50000"
"Glaucopsyche alexis","5000"
"Glis glis","50000"
"Glyphipterix loricatella","100000"
"Gnorimus variabilis","50000"
"Romanogobio vladykovi","10000"
"Gobio gobio","10000"
"Romanogobio kesslerii","100000"
"Romanogobio uranoscopus","100000"
"Gomphus flavipes","50000"
"Gomphus vulgatissimus","5000"
"Gonepteryx rhamni","5000"
"Gortyna borelii","250000"
"Gortyna borelii lunata","100000"
"Graphoderus bilineatus","100000"
"Grus grus","50000"
"Gymnocephalus baloni","5000"
"Gymnocephalus schraetser","50000"
"Gyps fulvus","250000"
"Haematopus ostralegus","25000"
"Haematopus ostralegus longipes","10000"
"Haliaeetus albicilla","1000000"
"Helix lutescens","5000"
"Helix pomatia","2000"
"Hemaris fuciformis","10000"
"Hemaris tityus","10000"
"Herophila tristis","10000"
"Herpes porcellus","50000"
"Heteropterus morpheus","10000"
"Hieraaetus fasciatus","250000"
"Hieraaetus pennatus","500000"
"Himantopus himantopus","250000"
"Hipparchia semele","10000"
"Hipparchia statilinus","10000"
"Hippolais icterina","25000"
"Iduna pallida","50000"
"Iduna pallida elaeica","50000"
"Hirundo daurica","25000"
"Hirundo rustica","50000"
"Hoplopterus spinosus","25000"
"Hucho hucho","100000"
"Huso huso","50000"
"Hydraecia petasitis","5000"
"Hydrelia sylvata","5000"
"Hyla arborea","10000"
"Hyles gallii","5000"
"Hymenalia morio","50000"
"Hypenodes orientalis","50000"
"Hyponephele lupinus","50000"
"Hyponephele lycaon","50000"
"Hypsugo savii","50000"
"Hyssia cavernosa","10000"
"Idia calvaria","5000"
"Inachis io","5000"
"Glaucopsyche iolas","250000"
"Iphiclides podalirius","10000"
"Isogenus nubecula","5000"
"Isognomostoma isognomostomos","10000"
"Isonychia ignota","10000"
"Isophya brevipennis","10000"
"Isophya costata","100000"
"Isophya modesta","10000"
"Isophya modestior","10000"
"Isophya stysi","100000"
"Isoptena serricornis","5000"
"Ixobrychus minutus","100000"
"Jordanita graeca","5000"
"Jynx torquilla","50000"
"Kisanthobia ariasi","10000"
"Kovacsia kovacsi","100000"
"Lacerta agilis","25000"
"Lacerta viridis","25000"
"Lamellocossus terebra","10000"
"Ovalisia dives","10000"
"Ovalisia mirifica","10000"
"Ovalisia rutilans","10000"
"Lamprotes c-aureum","50000"
"Lanius collurio","25000"
"Lanius excubitor","50000"
"Lanius excubitor homeyeri","50000"
"Lanius minor","50000"
"Lanius senator","50000"
"Larentia clavaria","5000"
"Larus argentatus","25000"
"Larus cachinnans","1000"
"Larus michahellis","1000"
"Larus canus","25000"
"Larus canus heinei","10000"
"Larus delawarensis","10000"
"Larus fuscus","50000"
"Larus fuscus heuglini","10000"
"Larus genei","25000"
"Larus glaucoides","25000"
"Larus hyperboreus","25000"
"Larus ichthyaetus","25000"
"Larus marinus","25000"
"Larus melanocephalus","100000"
"Larus minutus","25000"
"Larus pipixcan","10000"
"Larus ridibundus","50000"
"Larus sabini","10000"
"Leiopus punctulatus","10000"
"Leistus terminatus","10000"
"Lemonia dumi","10000"
"Lemonia taraxaci","10000"
"Leptidea morsei","50000"
"Leptidea morsei major","10000"
"Leptophyes discoidalis","10000"
"Leptura annularis","5000"
"Lestes dryas","5000"
"Lestes macrostigma","10000"
"Lethrus apterus","10000"
"Leucaspius delineatus","10000"
"Leuciscus leuciscus","10000"
"Telestes souffia","10000"
"Leucodonta bicoloria","10000"
"Leucorrhinia caudalis","100000"
"Leucorrhinia pectoralis","100000"
"Libelloides macaronius","100000"
"Libellula fulva","5000"
"Libythea celtis","5000"
"Lignyoptera fumidaria","100000"
"Limenitis camilla","10000"
"Limenitis populi","100000"
"Limenitis reducta","50000"
"Limicola falcinellus","25000"
"Limnephilus elegans","10000"
"Limnodromus scolopaceus","10000"
"Limoniscus violaceus","100000"
"Limosa lapponica","25000"
"Limosa limosa","500000"
"Protaetia lugubris","5000"
"Lioderina linearis","10000"
"Lithophane semibrunnea","5000"
"Locusta migratoria","10000"
"Locustella fluviatilis","50000"
"Locustella luscinioides","50000"
"Locustella naevia","50000"
"Lopinga achine","100000"
"Loxia curvirostra","25000"
"Loxia leucoptera","25000"
"Loxia leucoptera bifasciata","10000"
"Lozekia transsylvanica","10000"
"Lucanus cervus","10000"
"Lullula arborea","50000"
"Luperina zollikoferi","10000"
"Luscinia luscinia","100000"
"Luscinia megarhynchos","25000"
"Luscinia svecica","50000"
"Luscinia svecica cyanecula","50000"
"Lutra lutra","250000"
"Lycaena alciphron","10000"
"Lycaena dispar","50000"
"Lycaena dispar rutila","50000"
"Lycaena hippothoe","50000"
"Lycaena thersamon","10000"
"Lycophotia porphyrea","10000"
"Lycosa singoriensis","5000"
"Lygephila ludicra","50000"
"Lymnocryptes minimus","25000"
"Lynx lynx","500000"
"Macronychus quadrituberculatus","50000"
"Macrosiagon tricuspidatum","50000"
"Glaucopsyche alcon","50000"
"Glaucopsyche arion","50000"
"Glaucopsyche arion ligurica","50000"
"Glaucopsyche nausithous","50000"
"Glaucopsyche teleius","50000"
"Mantis religiosa","5000"
"Mantispa aphavexelte","10000"
"Mantispa perla","10000"
"Mantispa styriaca","50000"
"Marmaronetta angustirostris","250000"
"Martes martes","50000"
"Marthamea vitripennis","5000"
"Marumba quercus","10000"
"Mediterranea depressa","5000"
"Megascolia maculata","50000"
"Megascolia maculata flavifrons","50000"
"Megistopus flavicornis","5000"
"Melampophylax nepos","5000"
"Melanitta fusca","250000"
"Melanitta nigra","50000"
"Melanocorypha calandra","25000"
"Melitaea aurelia","10000"
"Melitaea britomartis","10000"
"Melitaea diamina","10000"
"Melitaea punica telona","50000"
"Melitaea trivia","5000"
"Meloe autumnalis","50000"
"Meloe brevicollis","10000"
"Meloe cicatricosus","10000"
"Meloe decorus","50000"
"Meloe hungarus","50000"
"Meloe mediterraneus","10000"
"Meloe rufiventris","50000"
"Meloe rugosus","5000"
"Meloe scabriusculus","5000"
"Meloe tuccius","50000"
"Meloe uralensis","50000"
"Meloe variegatus","50000"
"Mergellus albellus","50000"
"Mergus merganser","50000"
"Mergus serrator","50000"
"Merops apiaster","100000"
"Mesotrosta signalis","50000"
"Mesotype didymata","50000"
"Metachrostis dardouini","10000"
"Methorasa latreillei","10000"
"Micromys minutus","25000"
"Microtus agrestis","25000"
"Microtus oeconomus","500000"
"Microtus oeconomus mehelyi","250000"
"Emberiza calandra","25000"
"Milvus migrans","500000"
"Milvus milvus","500000"
"Miniopterus schreibersii","250000"
"Misgurnus fossilis","10000"
"Monachoides vicinus","5000"
"Monticola saxatilis","500000"
"Montifringilla nivalis","25000"
"Morimus asper funereus","50000"
"Mormo maura","5000"
"Motacilla alba","25000"
"Motacilla cinerea","50000"
"Motacilla citreola","25000"
"Motacilla citreola werae","10000"
"Motacilla flava","25000"
"Motacilla flava feldegg","10000"
"Motacilla flava thunbergi","10000"
"Musaria argus","10000"
"Muscardinus avellanarius","50000"
"Muscicapa striata","50000"
"Mustela erminea","50000"
"Mustela eversmanii hungarica","50000"
"Mustela nivalis vulgaris","25000"
"Mylabris pannonica","5000"
"Hycleus tenerus","5000"
"Myotis alcathoe","50000"
"Myotis bechsteinii","100000"
"Myotis blythii oxygnathus","50000"
"Myotis brandtii","50000"
"Myotis dasycneme","100000"
"Myotis daubentonii","50000"
"Myotis emarginatus","100000"
"Myotis myotis","50000"
"Myotis mystacinus","50000"
"Myotis nattereri","50000"
"Myrmeleon bore","50000"
"Myrmeleon formicarius","10000"
"Myrmeleon inconspicuus","5000"
"Naenia typica","5000"
"Nannospalax leucodon","1000000"
"Natrix natrix","25000"
"Natrix tessellata","25000"
"Necydalis major","50000"
"Necydalis ulmi","50000"
"Nemesia pannonica budensis","10000"
"Nemobius sylvestris","5000"
"Neodorcadion bilineatum","5000"
"Neoephemera maxima","10000"
"Neomys anomalus","50000"
"Neomys fodiens","50000"
"Neophron percnopterus","250000"
"Neozephyrus quercus","5000"
"Neptis rivularis","10000"
"Neptis sappho","10000"
"Protaetia fieberi","50000"
"Protaetia ungarica","10000"
"Netta rufina","50000"
"Neuroleon nemausiensis","10000"
"Nohoveus punctulatus","10000"
"Notodonta torva","10000"
"Notonecta lutea","5000"
"Nucifraga caryocatactes","25000"
"Nucifraga caryocatactes macrorhynchos","10000"
"Nudaria mundana","10000"
"Numenius arquata","500000"
"Numenius arquata orientalis","100000"
"Numenius phaeopus","50000"
"Numenius tenuirostris","1000000"
"Nyctalus lasiopterus","500000"
"Nyctalus leisleri","50000"
"Nyctalus noctula","25000"
"Bubo scandiaca","100000"
"Nycticorax nycticorax","100000"
"Nymphalis antiopa","50000"
"Nymphalis polychloros","10000"
"Nymphalis vaualbum","50000"
"Nymphalis xanthomelas","50000"
"Oberea euphorbiae","5000"
"Oberea pedemontana","10000"
"Ocneria rubea","10000"
"Ocnogyna parasita","50000"
"Odezia atrata","10000"
"Odice arcuinna","10000"
"Odontognophos dumetata","5000"
"Odontopodisma rubripes","10000"
"Odontoscelis hispidula","5000"
"Odontosia carmelita","10000"
"Oenanthe deserti","10000"
"Oenanthe hispanica","25000"
"Oenanthe hispanica melanoleuca","10000"
"Oenanthe isabellina","25000"
"Oenanthe oenanthe","50000"
"Oenanthe pleschanka","25000"
"Oligolimax annularis","10000"
"Oligoneuriella keffermuellerae","10000"
"Oligoneuriella pallida","5000"
"Oligoneuriella rhenana","10000"
"Oligotricha striata","50000"
"Onychogomphus forcipatus","5000"
"Platyscelis melas","50000"
"Platyscelis polita","50000"
"Ophiogomphus cecilia","50000"
"Ophonus sabulicola","10000"
"Orbona fragariae","5000"
"Orcula dolium","5000"
"Oria musculosa","10000"
"Oriolus oriolus","25000"
"Orthetrum brunneum","5000"
"Orthostixis cribraria","50000"
"Oryctes nasicornis","50000"
"Osmoderma eremita","250000"
"Osmylus fulvicephalus","10000"
"Ostrinia palustralis","5000"
"Otho sphondyloides","50000"
"Otiorhynchus roubali","50000"
"Otis tarda","1000000"
"Otus scops","100000"
"Oxytripia orbiculosa","250000"
"Oxyura leucocephala","500000"
"Pagodulina pagodula","5000"
"Paidia rica","10000"
"Palingenia longicauda","10000"
"Ovalisia festiva","50000"
"Palmitia massilialis","5000"
"Pammene querceti","10000"
"Panchrysia deaurata","50000"
"Pandion haliaetus","500000"
"Panurus biarmicus","50000"
"Panurus biarmicus russicus","50000"
"Papilio machaon","10000"
"Paraboarmia viertlii","5000"
"Paracaloptenus caloptenoides","100000"
"Parainocellia braueri","5000"
"Parasemia plantaginis","10000"
"Parexarnis fugax","10000"
"Parnassius mnemosyne","50000"
"Parnopes grandior","5000"
"Parus ater","25000"
"Parus caeruleus","25000"
"Parus cristatus","25000"
"Parus major","25000"
"Parus montanus","25000"
"Parus montanus borealis","10000"
"Parus palustris","25000"
"Parus palustris stagnatilis","10000"
"Passer montanus","25000"
"Pedestredorcadion decipiens","5000"
"Pedinus hungaricus","10000"
"Pelecanus crispus","500000"
"Pelecanus onocrotalus","250000"
"Pelobates fuscus","10000"
"Perconia strigillaria","10000"
"Perforatella bidentata","5000"
"Perforatella dibothrion","5000"
"Peribatodes umbraria","5000"
"Pericallia matronula","100000"
"Periphanes delphinii","10000"
"Perizoma minorata","10000"
"Pernis apivorus","100000"
"Petasina unidentata","10000"
"Phalacrocorax carbo","1000"
"Phalacrocorax carbo sinensis","1000"
"Phalacrocorax pygmeus","100000"
"Phalaropus fulicarius","25000"
"Phalaropus lobatus","25000"
"Phalera bucephaloides","10000"
"Pharmacis fusconebulosa","10000"
"Pheosia gnoma","5000"
"Philomachus pugnax","50000"
"Phlogophora scita","10000"
"Phoenicopterus ruber","50000"
"Phoenicopterus roseus","50000"
"Phoenicurus ochruros","25000"
"Phoenicurus ochruros gibraltariensis","10000"
"Phoenicurus phoenicurus","50000"
"Pholidoptera littoralis","10000"
"Pholidoptera transsylvanica","50000"
"Photedes captiuncula","50000"
"Photedes captiuncula delattini","2000"
"Phoxinus phoxinus","10000"
"Phragmatiphila nexa","50000"
"Phragmatobia luctifera","50000"
"Phyllodesma ilicifolium","10000"
"Phyllometra culminaria","100000"
"Phyllophya laciniata","5000"
"Phylloscopus bonelli","25000"
"Phylloscopus collybita","25000"
"Phylloscopus collybita abietinus","10000"
"Phylloscopus collybita tristis","10000"
"Phylloscopus fuscatus","20000"
"Phylloscopus inornatus","25000"
"Phylloscopus proregulus","25000"
"Phylloscopus schwarzi","10000"
"Phylloscopus sibilatrix","25000"
"Phylloscopus trochilus","25000"
"Phylloscopus trochilus acredula","10000"
"Picus canus","50000"
"Picus viridis","50000"
"Pieris bryoniae","50000"
"Pieris bryoniae marani","50000"
"Pieris ergane","50000"
"Pieris mannii","50000"
"Pilemia hirsutula","10000"
"Pilemia tigrina","100000"
"Pinicola enucleator","25000"
"Pipistrellus kuhlii","50000"
"Pipistrellus nathusii","25000"
"Pipistrellus pipistrellus","25000"
"Pipistrellus pygmaeus","25000"
"Platalea leucorodia","500000"
"Platycerus caprea","5000"
"Platycerus caraboides","5000"
"Platyphylax frauenfeldi","100000"
"Platyscelis hungarica","10000"
"Plebeius idas","10000"
"Plebeius sephirus","100000"
"Plecotus auritus","50000"
"Plecotus austriacus","50000"
"Plectrocnemia minima","10000"
"Plectrophenax nivalis","25000"
"Plectrophenax nivalis vlasowae","10000"
"Plegadis falcinellus","500000"
"Pluvialis apricaria","25000"
"Pluvialis fulva","10000"
"Pluvialis squatarola","25000"
"Podarcis muralis","25000"
"Podarcis taurica","50000"
"Podiceps auritus","50000"
"Podiceps cristatus","50000"
"Podiceps grisegena","250000"
"Podiceps nigricollis","100000"
"Podisma pedestris","10000"
"Poecilimon fussii","10000"
"Poecilimon intermedius","10000"
"Poecilimon schmidtii","10000"
"Poecilus kekesiensis","50000"
"Polychrysia moneta","50000"
"Polygonia c-album","5000"
"Polymixis rufocincta","100000"
"Polymixis rufocincta isolata","100000"
"Polyommatus admetus","10000"
"Polyommatus amandus","10000"
"Polyommatus damon","100000"
"Polyommatus dorylas","5000"
"Polyommatus thersites","10000"
"Polypogon gryphalis","5000"
"Polysarcus denticauda","5000"
"Polysticta stelleri","250000"
"Pomatias elegans","10000"
"Pomatias rivularis","50000"
"Porphyrio porphyrio","25000"
"Porphyrio porphyrio seistanicus","10000"
"Porphyrophora polonica","5000"
"Porzana parva","50000"
"Porzana porzana","50000"
"Porzana pusilla","500000"
"Porzana pusilla intermedia","250000"
"Potamophilus acuminatus","50000"
"Probaticus subrugosus","100000"
"Pronocera angusta","10000"
"Proserpinus proserpina","50000"
"Prostomis mandibularis","50000"
"Proterorhinus marmoratus","2000"
"Prunella collaris","25000"
"Prunella modularis","25000"
"Pseudanodonta complanata","5000"
"Pterocles exustus","10000"
"Ptilophorus dufouri","50000"
"Purpuricenus budensis","5000"
"Purpuricenus globulicollis","10000"
"Purpuricenus kaehleri","10000"
"Pyrgus alveus","10000"
"Pyrgus serratulae","10000"
"Pyrois cinnamomea","10000"
"Pyronia tithonus","10000"
"Pyrrhia purpurina","50000"
"Pyrrhocorax graculus","25000"
"Pyrrhocorax pyrrhocorax","25000"
"Pyrrhocorax pyrrhocorax erythrorhamphus","10000"
"Pyrrhula pyrrhula","25000"
"Pytho depressus","50000"
"Rallus aquaticus","50000"
"Rana arvalis","50000"
"Rana arvalis wolterstorffi","2000"
"Rana dalmatina","10000"
"Rana kl. esculenta","10000"
"Rana lessonae","10000"
"Rana ridibunda","10000"
"Rana temporaria","50000"
"Recurvirostra avosetta","250000"
"Regulus ignicapillus","25000"
"Regulus regulus","25000"
"Remiz pendulinus","50000"
"Evergestis alborivulalis","50000"
"Rhabdiopteryx acuminata","5000"
"Rhabdiopteryx hamulata","100000"
"Rhamnusium bicolor","5000"
"Hydria undulata","5000"
"Rhinolophus euryale","250000"
"Rhinolophus ferrumequinum","100000"
"Rhinolophus hipposideros","50000"
"Rhodeus amarus","5000"
"Rhyacophila hirticornis","5000"
"Rileyiana fovea","10000"
"Riparia riparia","50000"
"Rissa tridactyla","25000"
"Ropalopus insubricus","10000"
"Ropalopus ungaricus","10000"
"Ropalopus varini","10000"
"Rosalia alpina","50000"
"Rupicapra rupicapra","50000"
"Ruthenica filograna","5000"
"Rutilus frisii","5000"
"Rutilus virgo","10000"
"Sabanejewia aurata","10000"
"Sabanejewia aurata balcanica","2000"
"Sabanejewia aurata bulgarica","2000"
"Bythinella pannonica","10000"
"Saga pedo","50000"
"Salamandra salamandra","50000"
"Saperda octopunctata","10000"
"Saperda perforata","10000"
"Saperda punctata","10000"
"Saperda scalaris","10000"
"Saragossa porosa","50000"
"Saragossa porosa kenderesiensis","50000"
"Saturnia pavonia","10000"
"Saturnia pyri","50000"
"Saturnia spini","50000"
"Satyrium ilicis","10000"
"Satyrium pruni","5000"
"Satyrium spini","10000"
"Satyrium w-album","10000"
"Saxicola rubetra","25000"
"Saxicola torquata","25000"
"Saxicola rubicola","10000"
"Scarabaeus pius","10000"
"Scarabaeus typhon","10000"
"Parallelomorphus terricola","10000"
"Schinia cardui","5000"
"Schinia cognata","5000"
"Schistostege decussata","50000"
"Schizotus pectinicornis","5000"
"Sciurus vulgaris","25000"
"Scolitantides orion","5000"
"Pseudophilotes vicrama schiffermuelleri","10000"
"Scolopendra cingulata","10000"
"Scopula nemoraria","10000"
"Scotochrosta pulla","5000"
"Semanotus russicus","5000"
"Serinus serinus","25000"
"Shargacucullia gozmanyi","10000"
"Shargacucullia prenanthis","5000"
"Shargacucullia lanceolata","5000"
"Sicista subtilis","1000000"
"Sicista subtilis trizona","250000"
"Sideridis implexa","10000"
"Sinodendron cylindricum","10000"
"Sitta europaea","25000"
"Sitta europaea caesia","10000"
"Somateria mollissima","50000"
"Somateria spectabilis","25000"
"Somatochlora flavomaculata","5000"
"Sorex alpinus","50000"
"Sorex fodiens","25000"
"Sorex minutus","25000"
"Spelaeodiscus triarius","5000"
"Spermophilus citellus","250000"
"Sphex rufocinctus","5000"
"Spialia orbifer","10000"
"Spialia sertorius","10000"
"Spudaea ruticilla","5000"
"Staurophora celsia","5000"
"Stenobothrus eurasius","50000"
"Stenolophus steveni","10000"
"Stenoria apicalis","10000"
"Stercorarius longicaudus","25000"
"Stercorarius parasiticus","25000"
"Stercorarius pomarinus","25000"
"Catharacta skua","25000"
"Sterna albifrons","500000"
"Sterna caspia","50000"
"Sterna hirundo","100000"
"Sterna paradisaea","25000"
"Sterna sandvicensis","25000"
"Stilbum cyanurum","10000"
"Streptopelia orientalis","10000"
"Streptopelia orientalis meena","10000"
"Streptopelia turtur","50000"
"Strix aluco","50000"
"Strix uralensis","100000"
"Strix uralensis macroura","100000"
"Sturnus roseus","50000"
"Sturnus vulgaris","1000"
"Surnia ulula","50000"
"Sylvia atricapilla","25000"
"Sylvia borin","50000"
"Sylvia cantillans","25000"
"Sylvia cantillans albistriata","20000"
"Sylvia communis","25000"
"Sylvia curruca","25000"
"Sylvia melanocephala","25000"
"Sylvia nisoria","50000"
"Sympetrum depressiusculum","5000"
"Pyropteron affine","5000"
"Syrrhaptes paradoxus","10000"
"Tachybaptus ruficollis","50000"
"Tadorna ferruginea","25000"
"Tadorna tadorna","50000"
"Taeniopteryx schoenemundi","5000"
"Talpa europaea","25000"
"Tenebrio opacus","10000"
"Tetragnatha reimoseri","5000"
"Tetragnatha shoshone","5000"
"Tetragnatha striata","5000"
"Tetrao tetrix","50000"
"Tetrao urogallus","50000"
"Tetrao urogallus major","50000"
"Tetrax tetrax","500000"
"Tettigonia caudata","5000"
"Thecla betulae","5000"
"Theodoxus danubialis","10000"
"Theodoxus prevostianus","100000"
"Theodoxus transversalis","50000"
"Theophilea subcylindricollis","5000"
"Thymallus thymallus","5000"
"Thymelicus acteon","10000"
"Tibicina haematodes","5000"
"Tichodroma muraria","50000"
"Trichia lubomirskii","5000"
"Trichia striolata","5000"
"Trichoferus pallidus","5000"
"Tringa erythropus","25000"
"Tringa flavipes","10000"
"Tringa glareola","25000"
"Tringa nebularia","25000"
"Tringa ochropus","25000"
"Tringa stagnatilis","250000"
"Tringa totanus","250000"
"Triodia amasina","10000"
"Triturus alpestris","100000"
"Triturus carnifex","50000"
"Triturus cristatus","50000"
"Triturus dobrogicus","50000"
"Triturus vulgaris","10000"
"Troglodytes troglodytes","25000"
"Tryngites subruficollis","50000"
"Turdus iliacus","25000"
"Turdus merula","25000"
"Turdus naumanni","10000"
"Turdus philomelos","25000"
"Turdus pilaris","25000"
"Turdus torquatus","25000"
"Turdus torquatus alpestris","10000"
"Turdus viscivorus","50000"
"Tyria jacobaeae","5000"
"Tyto alba","100000"
"Tyto alba guttata","100000"
"Umbra krameri","250000"
"Unio crassus","10000"
"Upupa epops","50000"
"Ursus arctos","250000"
"Vadonia steveni","5000"
"Vanellus vanellus","50000"
"Vanessa atalanta","5000"
"Vertigo angustior","5000"
"Vertigo moulinsiana","5000"
"Vespertilio murinus","50000"
"Vestia gulo","5000"
"Vestia turgida","10000"
"Vipera berus","250000"
"Vipera ursinii","1000000"
"Vipera ursinii rakosiensis","1000000"
"Xenus cinereus","25000"
"Xerasia meschniggi","50000"
"Xestia sexstrigata","10000"
"Xylotrechus pantherinus","5000"
"Zerynthia polyxena","50000"
"Zingel streber","100000"
"Zingel zingel","100000"
"Zootoca vivipara","100000"
"Zootoca vivipara pannonica","50000"
"Zygaena fausta","10000"
"Zygaena laeta","100000"
"Eresus moravicus","5000"
"Rhysodes sulcatus","10000"
"Omoglymmius germari","10000"
"Bombina bombina ×variegata","50000"
"Anguis colchica","25000"
"Rhyssa persuasoria","50000"
"Pisum elatius","5000"
"Lathyrus pannonicus","10000"
"Cimicifuga europaea","100000"
"Aquilegia vulgaris","10000"
"Aquilegia vulgaris subsp. nigricans","10000"
"Paeonia officinalis subsp. banatica","250000"
"Lathyrus pisiformis","250000"
"Lathyrus nissolia","5000"
"Clematis integrifolia","5000"
"Clematis alpina","10000"
"Daphne laureola","50000"
"Daphne mezereum","10000"
"Daphne cneorum","50000"
"Daphne cneorum subsp. arbusculoides","10000"
"Hippophaë rhamnoides subsp. carpatica","10000"
"Pulsatilla pratensis subsp. zimmermannii","50000"
"Hepatica nobilis","5000"
"Anemone sylvestris","5000"
"Anemone trifolia","50000"
"Trollius europaeus","50000"
"Aconitum anthora","5000"
"Aconitum variegatum subsp. gracilis","50000"
"Aconitum vulparia","5000"
"Aconitum moldavicum","50000"
"Trollius europaeus subsp. demissorum","10000"
"Trollius europaeus subsp. tatrae","10000"
"Lythrum linifolium","5000"
"Lythrum tribracteatum","10000"
"Helleborus dumetorum","5000"
"Helleborus odorus","10000"
"Helleborus purpurascens","10000"
"Eranthis hyemalis","5000"
"Lathyrus pannonicus subsp. collinus","5000"
"Lathyrus pallescens","250000"
"Lathyrus palustris","10000"
"Lathyrus venetus","5000"
"Lathyrus linifolius var. montanus","5000"
"Pulsatilla patens","250000"
"Pulsatilla grandis","10000"
"Pulsatilla ×mixta","10000"
"Pulsatilla pratensis subsp. nigricans","10000"
"Pulsatilla pratensis subsp. nigricans lus. rubra","10000"
"Pulsatilla pratensis subsp. hungarica","100000"
"Batrachium fluitans","5000"
"Ranunculus polyphyllus","5000"
"Ranunculus lingua","10000"
"Ranunculus nemorosus","10000"
"Ranunculus strigulosus","10000"
"Ranunculus lateriflorus","5000"
"Ranunculus illyricus","5000"
"Ranunculus psilostachys","5000"
"Thalictrum aquilegiifolium","5000"
"Thalictrum foetidum","10000"
"Thalictrum minus subsp. pseudominus","5000"
"Sorbus ×thaiszii","10000"
"Sorbus ×pseudodanubialis","10000"
"Sorbus ×ulmifolia","10000"
"Sorbus ×vajdae","10000"
"Adonis vernalis","5000"
"Adonis ×hybrida","250000"
"Nymphaea alba","5000"
"Spiraea salicifolia","10000"
"Spiraea crenata","50000"
"Spiraea media","10000"
"Aruncus sylvestris","5000"
"Cotoneaster tomentosus","10000"
"Cotoneaster integerrimus","10000"
"Cotoneaster niger","10000"
"Pyrus nivalis","10000"
"Pyrus nivalis subsp. salviifolia","10000"
"Pyrus magyarica","250000"
"Pyrus ×karpatiana","250000"
"Sorbus domestica","10000"
"Sorbus aria","10000"
"Sorbus aria agg.","10000"
"Sorbus graeca","10000"
"Sorbus austriaca subsp. hazslinszkyana","10000"
"Sorbus ×danubialis","10000"
"Sorbus ×pseudosemiincisa","10000"
"Sorbus ×pseudobakonyensis","10000"
"Sorbus ×pseudolatifolia","10000"
"Sorbus ×simonkaiana","10000"
"Sorbus ×vertesensis","10000"
"Sorbus ×semiincisa","10000"
"Sorbus ×pseudovertesensis","10000"
"Sorbus ×redliana","10000"
"Sorbus ×latissima","10000"
"Sorbus ×balatonica","10000"
"Sorbus ×barthae","10000"
"Sorbus ×borosiana","10000"
"Sorbus ×adamii","10000"
"Sorbus ×andreanszkyana","10000"
"Sorbus ×bakonyensis","10000"
"Sorbus ×gayeriana","10000"
"Sorbus ×gerecseensis","10000"
"Sorbus ×karpatii","10000"
"Sorbus ×decipientiformis","10000"
"Sorbus ×degenii","10000"
"Sorbus ×eugenii-kelleri","10000"
"Amelanchier ovalis","10000"
"Crataegus nigra","100000"
"Rubus saxatilis","10000"
"Comarum palustre","100000"
"Potentilla rupestris","5000"
"Potentilla patula","10000"
"Geum aleppicum","10000"
"Geum rivale","10000"
"Aremonia agrimonioides","5000"
"Alchemilla glaucescens","10000"
"Alchemilla hungarica","5000"
"Alchemilla glabra","5000"
"Alchemilla xanthochlora","5000"
"Alchemilla gracilis","5000"
"Alchemilla acutiloba","5000"
"Alchemilla crinita","5000"
"Alchemilla subcrenata","5000"
"Alchemilla monticola","5000"
"Alchemilla filicaulis","5000"
"Rosa pendulina","10000"
"Rosa ×reversa","10000"
"Rosa sancti-andreae","10000"
"Amygdalus nana","10000"
"Sedum caespitosum","5000"
"Sedum hispanicum","5000"
"Sorbus ×zolyomii","10000"
"Sorbus ×huljakii","10000"
"Sedum neglectum subsp. sopianae","5000"
"Sedum sartorianum subsp. hillebrandtii","5000"
"Sempervivum tectorum","5000"
"Sempervivum marmoreum","10000"
"Jovibarba hirta","5000"
"Jovibarba sobolifera","5000"
"Saxifraga paniculata","10000"
"Saxifraga adscendens","50000"
"Parnassia palustris","10000"
"Ribes alpinum","10000"
"Ribes nigrum","10000"
"Ribes petraeum","10000"
"Chamaecytisus supinus subsp. pseudorochelii","5000"
"Chamaecytisus albus","5000"
"Chamaecytisus heuffelii","5000"
"Chamaecytisus ciliatus","5000"
"Trigonella gladiata","50000"
"Medicago orbicularis","5000"
"Medicago rigidula","5000"
"Trifolium ornithopodioides","5000"
"Trifolium vesiculosum","50000"
"Trifolium subterraneum var. brachycladum","10000"
"Lotus borbasii","5000"
"Astragalus contortuplicatus","50000"
"Astragalus sulcatus","50000"
"Astrantia major","5000"
"Astragalus dasyanthus","100000"
"Astragalus exscapus","50000"
"Astragalus asper","5000"
"Astragalus varius","50000"
"Astragalus vesicarius subsp. albidus","10000"
"Oxytropis pilosa subsp. hungarica","50000"
"Hydrocotyle vulgaris","5000"
"Chaerophyllum hirsutum","5000"
"Chaerophyllum aureum","5000"
"Anthriscus nitida","5000"
"Torilis ucranica","5000"
"Physospermum cornubiense","50000"
"Pleurospermum austriacum","50000"
"Bupleurum longifolium","10000"
"Peucedanum officinale","5000"
"Peucedanum arenarium","10000"
"Asperula taurina subsp. leucanthera","5000"
"Coronilla emerus","10000"
"Coronilla elegans","50000"
"Coronilla coronata","5000"
"Coronilla vaginalis","10000"
"Vicia sparsiflora","5000"
"Vicia sylvatica","5000"
"Vicia biennis","100000"
"Vicia oroboides","5000"
"Vicia narbonensis subsp. serratifolia","5000"
"Lathyrus transsilvanicus","10000"
"Ludwigia palustris","5000"
"Epilobium palustre","10000"
"Epilobium dodonaei","5000"
"Circaea alpina","5000"
"Circaea ×intermedia","5000"
"Trapa natans","5000"
"Hippuris vulgaris","10000"
"Dictamnus albus","5000"
"Polygala major","5000"
"Polygala amarella","10000"
"Polygala amarella subsp. austriaca","10000"
"Rhamnus saxatilis","10000"
"Vitis sylvestris","50000"
"Bupleurum pachnospermum","10000"
"Trinia ramosissima","10000"
"Apium repens","50000"
"Cicuta virosa","5000"
"Sium sisaroideum","50000"
"Seseli leucospermum","100000"
"Silaum peucedanoides","10000"
"Cnidium dubium","10000"
"Angelica palustris","100000"
"Ferula sadleriana","250000"
"Peucedanum verticillare","10000"
"Peucedanum palustre","5000"
"Galium tenuissimum","10000"
"Galium austriacum","5000"
"Lonicera caprifolium","5000"
"Lonicera nigra","10000"
"Blackstonia acuminata","5000"
"Gentianella ciliata","10000"
"Gentiana cruciata","10000"
"Gentiana asclepiadea","10000"
"Gentiana pneumonanthe","10000"
"Valeriana excelsa","10000"
"Valeriana simplicifolia","10000"
"Valeriana tripteris subsp. austriaca","5000"
"Aster amellus","5000"
"Crepis pannonica","100000"
"Crepis nicaeensis","5000"
"Cyclamen purpurascens","10000"
"Armeria elongata","10000"
"Gagea szovitsii","10000"
"Rumex pseudonatronatus","10000"
"Polygonum bistorta","5000"
"Knautia kitaibelii subsp. tomentella","250000"
"Knautia dipsacifolia","10000"
"Scabiosa canescens","5000"
"Radiola linoides","5000"
"Linum flavum","10000"
"Linum dolomiticum","250000"
"Linum trigynum","5000"
"Linum hirsutum","5000"
"Linum hirsutum subsp. glabrescens","5000"
"Linum tenuifolium","5000"
"Geranium sylvaticum","10000"
"Gentianella austriaca","10000"
"Gentianella livonica","50000"
"Prunella ×spuria","5000"
"Menyanthes trifoliata","10000"
"Nymphoides peltata","5000"
"Vincetoxicum pannonicum","100000"
"Vinca herbacea","5000"
"Convolvulus cantabrica","5000"
"Heliotropium supinum","5000"
"Omphalodes scorpioides","5000"
"Anchusa barrelieri","10000"
"Anchusa ochroleuca subsp. pustulata","100000"
"Alkanna tinctoria","5000"
"Pulmonaria angustifolia","50000"
"Myosotis caespitosa","5000"
"Myosotis stenophylla","50000"
"Veronica paniculata","100000"
"Veronica longifolia","5000"
"Veronica pallens","50000"
"Digitalis lanata","100000"
"Digitalis ferruginea","100000"
"Melampyrum bihariense prol. romanicum","5000"
"Onosma visianii","5000"
"Onosma arenarium","5000"
"Onosma arenarium subsp. tuberculatum","5000"
"Onosma tornense","250000"
"Echium russicum","50000"
"Verbena supina","10000"
"Ajuga laxmannii","50000"
"Teucrium scorodonia","5000"
"Scutellaria columnae","5000"
"Nepeta parviflora","250000"
"Dracocephalum austriacum","250000"
"Dracocephalum ruyschiana","250000"
"Prunella grandiflora","5000"
"Prunella ×bicolor","5000"
"Phlomis tuberosa","5000"
"Lamium orvala","50000"
"Stachys alpina","10000"
"Salvia nutans","250000"
"Calamintha thymifolia","100000"
"Scolochloa festucacea","50000"
"Scopolia carniolica","5000"
"Linaria ×kocianovichii","10000"
"Scrophularia vernalis","5000"
"Scrophularia scopolii","5000"
"Lindernia procumbens","5000"
"Pedicularis palustris","50000"
"Globularia cordifolia","10000"
"Orobanche nana","10000"
"Orobanche caesia","10000"
"Orobanche coerulescens subsp. occidentalis","5000"
"Orobanche loricata","10000"
"Cardamine amara","5000"
"Cardamine trifolia","10000"
"Dentaria glandulosa","10000"
"Dentaria trifolia","10000"
"Orobanche hederae","5000"
"Orobanche flava","10000"
"Pinguicula vulgaris","100000"
"Utricularia minor","50000"
"Utricularia bremii","100000"
"Plantago schwarzenbergiana","10000"
"Plantago argentea","5000"
"Plantago maxima","250000"
"Corydalis intermedia","5000"
"Corydalis ×campylochila","2000"
"Crambe tataria","100000"
"Conringia austriaca","50000"
"Isatis tinctoria","5000"
"Isatis tinctoria subsp. praecox","5000"
"Aethionema saxatile","5000"
"Thlaspi alliaceum","10000"
"Sorbus ×budaiana","10000"
"Thlaspi coerulescens","10000"
"Thlaspi montanum","50000"
"Thlaspi goesingense","10000"
"Thlaspi jankae","10000"
"Thlaspi kovatsii subsp. schudichii","10000"
"Teesdalia nudicaulis","10000"
"Lunaria rediviva","5000"
"Lunaria annua","5000"
"Lunaria annua subsp. pachyrrhiza","5000"
"Alyssum saxatile","5000"
"Draba lasiocarpa","10000"
"Sorbus ×tobani","10000"
"Sorbus ×majeri","10000"
"Sorbus ×dracofolius","10000"
"Sorbus ×bodajkensis","10000"
"Sorbus ×vallerubusensis","10000"
"Sorbus ×veszpremensis","10000"
"Sorbus ×acutiserratus","10000"
"Armoracia macrocarpa","100000"
"Cardaminopsis petraea","50000"
"Arabis alpina","10000"
"Nasturtium officinale","5000"
"Hesperis matronalis","10000"
"Hesperis matronalis subsp. spontanea","10000"
"Hesperis matronalis subsp. candida","10000"
"Hesperis matronalis subsp. vrabelyiana","100000"
"Hesperis sylvestris","5000"
"Erysimum crepidifolium","5000"
"Erysimum odoratum","5000"
"Erysimum odoratum subsp. buekkense","5000"
"Erysimum pallidiflorum","100000"
"Sisymbrium polymorphum","50000"
"Reseda inodora","5000"
"Drosera rotundifolia","10000"
"Aldrovanda vesiculosa","50000"
"Myricaria germanica","10000"
"Viola biflora","50000"
"Viola collina","5000"
"Viola stagnina","10000"
"Elatine alsinastrum","5000"
"Elatine triandra","10000"
"Elatine hungarica","5000"
"Elatine hydropiper","5000"
"Elatine hexandra","2000"
"Hypericum maculatum","5000"
"Campanula latifolia","100000"
"Adenophora liliifolia","250000"
"Asyneuma canescens","5000"
"Asyneuma canescens subsp. salicifolium","5000"
"Phyteuma spicatum","5000"
"Phyteuma orbiculare","5000"
"Aster oleifolius","250000"
"Aster sedifolius","5000"
"Aster sedifolius subsp. canus","5000"
"Carlina acaulis","5000"
"Jurinea mollis","5000"
"Jurinea mollis subsp. macrocalathia","5000"
"Hypericum barbatum","100000"
"Hypericum elegans","10000"
"Hypericum ×desetangsii","5000"
"Chimaphila umbellata","10000"
"Moneses uniflora","5000"
"Orthilia secunda","5000"
"Pyrola rotundifolia","5000"
"Pyrola chlorantha","50000"
"Pyrola minor","5000"
"Pyrola media","50000"
"Vaccinium oxycoccos","10000"
"Vaccinium vitis-idaea","10000"
"Campanula macrostachya","100000"
"Helichrysum arenarium","5000"
"Inula helenium","5000"
"Inula spiraeifolia","10000"
"Inula germanica","5000"
"Inula oculus-christi","5000"
"Carpesium abrotanoides","5000"
"Buphthalmum salicifolium","5000"
"Telekia speciosa","10000"
"Achillea ptarmica","5000"
"Achillea ochroleuca","10000"
"Achillea horanszkyi","100000"
"Achillea crithmifolia","5000"
"Achillea tuzsonii","100000"
"Chrysanthemum serotinum","10000"
"Petasites albus","5000"
"Arnica montana","10000"
"Doronicum hungaricum","50000"
"Doronicum austriacum","50000"
"Doronicum orientale","50000"
"Doronicum ×sopianae","10000"
"Senecio aurantiacus","50000"
"Senecio ovirensis","50000"
"Senecio ovirensis subsp. gaudinii","10000"
"Senecio rivularis","10000"
"Senecio aquaticus","5000"
"Senecio paludosus","10000"
"Senecio paludosus subsp. lanatus","10000"
"Senecio umbrosus","100000"
"Ligularia sibirica","10000"
"Echinops ruthenicus","10000"
"Jurinea mollis subsp. dolomitica","2000"
"Carduus hamulosus","5000"
"Carduus glaucus","10000"
"Carduus collinus","10000"
"Carduus ×solteszii","5000"
"Cirsium boujarti","10000"
"Cirsium furiens","10000"
"Cirsium brachycephalum","5000"
"Cirsium rivulare","5000"
"Cirsium erisithales","5000"
"Cirsium ×linkianum","5000"
"Serratula lycopifolia","100000"
"Serratula radiata","10000"
"Centaurea solstitialis","5000"
"Centaurea triumfetti subsp. aligera","5000"
"Centaurea triumfetti subsp. stricta","5000"
"Centaurea mollis","50000"
"Centaurea sadleriana","5000"
"Centaurea arenaria","10000"
"Centaurea arenaria subsp. borysthenica","10000"
"Centaurea arenaria subsp. tauscheri","10000"
"Centaurea pseudophrygia","5000"
"Melandrium sylvestre","5000"
"Silene nemoralis","5000"
"Silene longiflora","10000"
"Silene multiflora","5000"
"Silene borysthenica","10000"
"Silene flavescens","100000"
"Gypsophila fastigiata subsp. arenaria","5000"
"Dianthus collinus","5000"
"Dianthus collinus subsp. glabriusculus","5000"
"Dianthus plumarius subsp. praecox","100000"
"Dianthus plumarius subsp. lumnitzeri","100000"
"Dianthus arenarius subsp. borussicus","5000"
"Cerastium arvense subsp. calcicola","10000"
"Minuartia frutescens","5000"
"Leontodon incanus","10000"
"Tragopogon floccosus","5000"
"Scorzonera purpurea","5000"
"Scorzonera humilis","5000"
"Taraxacum serotinum","5000"
"Sonchus palustris","5000"
"Hieracium aurantiacum","10000"
"Hieracium staticifolium","5000"
"Hieracium bupleuroides subsp. tatrae","10000"
"Hieracium kossuthianum","10000"
"Montia fontana subsp. minor","5000"
"Agrostemma githago","5000"
"Lychnis coronaria","10000"
"Dianthus serotinus","5000"
"Dianthus superbus","5000"
"Dianthus deltoides","5000"
"Dianthus diutinus","250000"
"Dianthus giganteiformis","5000"
"Dianthus ×hellwigii","5000"
"Stellaria palustris","10000"
"Moehringia muscosa","5000"
"Scleranthus perennis","10000"
"Paronychia cephalotes","5000"
"Herniaria incana","5000"
"Ceratoides latens","10000"
"Bassia sedoides","5000"
"Corispermum nitidum","5000"
"Corispermum canescens","10000"
"Salsola soda","5000"
"Primula vulgaris","5000"
"Primula elatior","10000"
"Primula auricula subsp. hungarica","250000"
"Primula farinosa subsp. alpigena","250000"
"Primula ×brevistyla","2000"
"Androsace maxima","10000"
"Hottonia palustris","5000"
"Samolus valerandi","5000"
"Lysimachia nemorum","10000"
"Glaux maritima","5000"
"Urtica kioviensis","5000"
"Carpinus orientalis","50000"
"Betula pubescens","50000"
"Alnus viridis","50000"
"Salix pentandra","10000"
"Salix nigricans","10000"
"Salix aurita","50000"
"Salix eleagnos","10000"
"Salix ×multinervis","5000"
"Caldesia parnassifolia","100000"
"Triglochin palustre","5000"
"Potamogeton coloratus","50000"
"Potamogeton obtusifolius","10000"
"Groenlandia densa","5000"
"Veratrum album","5000"
"Veratrum album subsp. lobelianum","2000"
"Bulbocodium versicolor","250000"
"Colchicum hungaricum","100000"
"Colchicum arenarium","100000"
"Asphodelus albus","10000"
"Anthericum liliago","50000"
"Hemerocallis lilio-asphodelus","100000"
"Gagea bohemica","5000"
"Gagea spathacea","10000"
"Allium victorialis","50000"
"Allium suaveolens","10000"
"Allium moschatum","5000"
"Allium carinatum","5000"
"Allium paniculatum subsp. marginatum","10000"
"Allium sphaerocephalon","5000"
"Allium sphaerocephalon subsp. amethystinum","5000"
"Lilium martagon","10000"
"Lilium bulbiferum","100000"
"Fritillaria meleagris","50000"
"Erythronium dens-canis","50000"
"Scilla spetana","10000"
"Scilla drunensis","5000"
"Scilla kladnii","10000"
"Scilla vindobonensis","5000"
"Scilla autumnalis","5000"
"Ornithogalum pyramidale","5000"
"Ornithogalum sphaerocarpum","5000"
"Ornithogalum comosum","5000"
"Ornithogalum refractum","5000"
"Muscari botryoides","5000"
"Muscari botryoides subsp. transsilvanicum","5000"
"Crocus albiflorus","50000"
"Muscari botryoides subsp. kerneri","5000"
"Ruscus hypoglossum","50000"
"Ruscus aculeatus","10000"
"Polygonatum verticillatum","10000"
"Galanthus nivalis","10000"
"Leucojum vernum","5000"
"Leucojum aestivum","10000"
"Sternbergia colchiciflora","10000"
"Narcissus angustifolius","10000"
"Tamus communis","5000"
"Crocus reticulatus","10000"
"Crocus heuffelianus","10000"
"Crocus tommasinianus","50000"
"Gladiolus palustris","250000"
"Gladiolus imbricatus","50000"
"Iris pumila","5000"
"Iris arenaria","10000"
"Iris aphylla subsp. hungarica","100000"
"Iris variegata","5000"
"Iris spuria","10000"
"Iris sibirica","10000"
"Iris graminea","10000"
"Iris graminea subsp. pseudocyperus","5000"
"Juncus maritimus","5000"
"Juncus alpinus","10000"
"Cypripedium calceolus","250000"
"Cephalanthera rubra","10000"
"Cephalanthera damasonium","10000"
"Cephalanthera ×schulzei","10000"
"Cephalanthera longifolia","10000"
"Epipactis palustris","10000"
"Carex caespitosa","10000"
"Epipactis atrorubens","10000"
"Epipactis atrorubens subsp. borbasii","10000"
"Epipactis ×graberi","10000"
"Epipactis microphylla","10000"
"Epipactis purpurata","10000"
"Epipactis purpurata var. rosea","10000"
"Epipactis helleborine","5000"
"Epipactis pontica","10000"
"Epipactis gracilis","100000"
"Epipactis muelleri","10000"
"Epipactis leptochila","10000"
"Epipactis leptochila subsp. neglecta","10000"
"Epipactis bugacensis","250000"
"Epipactis albensis","50000"
"Epipactis nordeniorum","50000"
"Epipactis tallosii","10000"
"Epipactis helleborine agg.","5000"
"Limodorum abortivum","10000"
"Listera ovata","10000"
"Neottia nidus-avis","5000"
"Spiranthes spiralis","10000"
"Spiranthes aestivalis","10000"
"Goodyera repens","10000"
"Epipogium aphyllum","100000"
"Coeloglossum viride","10000"
"Platanthera bifolia","5000"
"Platanthera chlorantha","10000"
"Platanthera ×hybrida","10000"
"Gymnadenia conopsea","10000"
"Gymnadenia conopsea subsp. densiflora","10000"
"Dactylorhiza incarnata subsp. haematodes","10000"
"Gymnadenia odoratissima","50000"
"Ophrys insectifera","250000"
"Ophrys sphecodes","100000"
"Ophrys scolopax subsp. cornuta","250000"
"Ophrys ×nelsonii","250000"
"Ophrys fuciflora","250000"
"Ophrys holubyana","250000"
"Ophrys apifera","250000"
"Orchis morio","10000"
"Orchis coriophora","50000"
"Orchis ×timbalii","10000"
"X Orchidactyla Drudei","10000"
"Orchis ustulata","10000"
"Orchis ustulata subsp. aestivalis","10000"
"Orchis tridentata","10000"
"Orchis simia","50000"
"Orchis militaris","10000"
"Orchis purpurea","10000"
"Orchis ×hybrida","10000"
"Orchis mascula subsp. signifera","10000"
"Orchis pallens","50000"
"Orchis laxiflora subsp. palustris","10000"
"Orchis laxiflora subsp. elegans","10000"
"Traunsteinera globosa","100000"
"Dactylorhiza sambucina","10000"
"Dactylorhiza incarnata","10000"
"Dactylorhiza incarnata var. hyphaematodes","10000"
"Dactylorhiza incarnata subsp. serotina","10000"
"Dactylorhiza majalis","10000"
"Dactylorhiza ×aschersoniana","10000"
"Dactylorhiza maculata","10000"
"Dactylorhiza fuchsii","10000"
"Dactylorhiza fuchsii subsp. sooiana","10000"
"Orchis ×angusticruris","10000"
"Dactylorhiza maculata subsp. transsylvanica","10000"
"Anacamptis pyramidalis","10000"
"Himantoglossum caprinum","250000"
"Himantoglossum adriaticum","250000"
"Liparis loeselii","250000"
"Corallorhiza trifida","10000"
"Hammarbya paludosa","100000"
"Blysmus compressus","10000"
"Eleocharis quinqueflora","10000"
"Eleocharis carniolica","10000"
"Eleocharis uniglumis","5000"
"Eriophorum vaginatum","10000"
"Eriophorum gracile","10000"
"Eriophorum latifolium","10000"
"Eriophorum angustifolium","10000"
"Schoenus nigricans","5000"
"Rhynchospora alba","5000"
"Carex davalliana","10000"
"Carex bohemica","5000"
"Carex diandra","50000"
"Carex appropinquata","10000"
"Carex paniculata","5000"
"Carex repens","10000"
"Carex canescens","10000"
"Carex echinata","5000"
"Carex buekii","5000"
"Carex hartmannii","5000"
"Carex buxbaumii","10000"
"Carex fritschii","10000"
"Carex umbrosa","10000"
"Carex alba","5000"
"Carex strigosa","5000"
"Carex brevicollis","5000"
"Carex rostrata","5000"
"Carex lasiocarpa","10000"
"Festuca amethystina","10000"
"Festuca ×wagneri","10000"
"Festuca dalmatica","5000"
"Puccinellia peisonis","5000"
"Poa remota","10000"
"Poa pannonica subsp. scabra","5000"
"Sesleria heuflerana","5000"
"Sesleria hungarica","5000"
"Sesleria sadlerana","5000"
"Sesleria varia","5000"
"Sesleria uliginosa","5000"
"Cephalozia lacinulata","5000"
"Helictotrichon compressum","5000"
"Koeleria pyramidata","10000"
"Koeleria majoriflora","5000"
"Koeleria javorkae","10000"
"Calamagrostis varia","5000"
"Calamagrostis stricta","10000"
"Calamagrostis pseudophragmites","10000"
"Calamagrostis purpurea","10000"
"Stipa bromoides","5000"
"Stipa tirsa","5000"
"Stipa dasyphylla","10000"
"Stipa borysthenica","5000"
"Stipa joannis","5000"
"Stipa joannis subsp. puberula","5000"
"Stipa eriocaulis","5000"
"Stipa pulcherrima","5000"
"Acorus calamus","5000"
"Sparganium minimum","100000"
"Huperzia selago","10000"
"Lycopodium annotinum","10000"
"Lycopodium clavatum","10000"
"Diphasium complanatum","10000"
"Diphasium issleri","10000"
"Selaginella helvetica","5000"
"Equisetum sylvaticum","10000"
"Equisetum hyemale","5000"
"Equisetum ×moorei","5000"
"Equisetum variegatum","5000"
"Botrychium lunaria","10000"
"Botrychium matricariifolium","100000"
"Botrychium multifidum","100000"
"Botrychium virginianum subsp. europaeum","100000"
"Ophioglossum vulgatum","5000"
"Osmunda regalis","250000"
"Cheilanthes marantae","250000"
"Phyllitis scolopendrium","5000"
"Asplenium adiantum-nigrum","5000"
"Asplenium lepidum","10000"
"Asplenium fontanum","50000"
"Asplenium viride","5000"
"Ceterach officinarum","10000"
"Ceterach javorkaeanum","10000"
"Oreopteris limbosperma","10000"
"Thelypteris palustris","5000"
"Gymnocarpium dryopteris","5000"
"Gymnocarpium robertianum","5000"
"Phegopteris connectilis","5000"
"Matteuccia struthiopteris","50000"
"Woodsia ilvensis","100000"
"Woodsia alpina","10000"
"Polystichum lonchitis","10000"
"Polystichum aculeatum","5000"
"Polystichum braunii","10000"
"Polystichum setiferum","5000"
"Jungermannia subulata","5000"
"Dryopteris cristata","100000"
"Dryopteris pseudo-mas","10000"
"Dryopteris carthusiana","5000"
"Dryopteris dilatata","5000"
"Dryopteris expansa","5000"
"Blechnum spicant","10000"
"Marsilea quadrifolia","10000"
"Salvinia natans","5000"
"Ephedra distachya","100000"
"Scilla drunensis subsp. buekkensis","5000"
"Scilla paratheticum","5000"
"Epipactis placentina","250000"
"Agropyron elongatum","5000"
"Sphagnum palustre","5000"
"Mannia triandra","5000"
"Riccia frostii","5000"
"Riccia huebeneriana","5000"
"Lophozia ascendens","5000"
"Frullania inflata","5000"
"Sphagnum compactum","5000"
"Sphagnum subsecundum","5000"
"Sphagnum contortum","5000"
"Sphagnum platyphyllum","5000"
"Sphagnum obtusum","5000"
"Sphagnum recurvum","5000"
"Sphagnum squarrosum","5000"
"Sphagnum teres","5000"
"Sphagnum quinquefarium","5000"
"Sphagnum fimbriatum","5000"
"Sphagnum girgensohnii","5000"
"Sphagnum russowii","5000"
"Sphagnum subnitens","5000"
"Sphagnum centrale","5000"
"Sphagnum magellanicum","5000"
"Sphagnum auriculatum","5000"
"Sphagnum capillifolium","5000"
"Sphagnum cuspidatum","5000"
"Sphagnum warnstorfi","5000"
"Buxbaumia viridis","5000"
"Dicranella humilis","5000"
"Dicranum viride","5000"
"Fissidens arnoldii","5000"
"Fissidens exiguus","5000"
"Fissidens algarvicus","5000"
"Weissia rostellata","5000"
"Phascum floerkeanum","10000"
"Aloina bifrons","5000"
"Pterygoneurum lamellatum","5000"
"Tortula brevissima","5000"
"Grimmia plagiopodia","5000"
"Grimmia sessitana","5000"
"Grimmia teretinervis","5000"
"Ephemerum cohaerens","5000"
"Ephemerum recurvifolium","5000"
"Physcomitrium sphaericum","5000"
"Bryum neodamense","5000"
"Bryum warneum","5000"
"Bryum stirtonii","5000"
"Bryum versicolor","5000"
"Meesia triquetra","5000"
"Campylostelium saxicola","5000"
"Orthotrichum stellatum","5000"
"Orthotrichum rogeri","5000"
"Orthotrichum scanicum","5000"
"Neckera pennata","5000"
"Anacamptodon splachnoides","5000"
"Anomodon rostratus","5000"
"Calliergon stramineum","5000"
"Calliergon giganteum","5000"
"Scorpidium scorpioides","10000"
"Campylium elodes","5000"
"Drepanocladus sendtneri","5000"
"Drepanocladus exannulatus","5000"
"Drepanocladus vernicosus","5000"
"Drepanocladus revolvens","5000"
"Drepanocladus lycopodioides","10000"
"Amblystegium saxatile","5000"
"Brachythecium geheebii","5000"
"Brachythecium oxycladum","5000"
"Rynchostegium rotundifolium","5000"
"Rynchostegiella jacquinii","5000"
"Taxiphyllum densifolium","5000"
"Asterella saccata","5000"
"Brachydontium trichoides","5000"
"Desmatodon cernuus","5000"
"Didymodon glaucus","5000"
"Enthostodon hungaricus","10000"
"Pyramidula tetragona","5000"
"Hilpertia velenovskyi","5000"
"Leucobryum glaucum","5000"
"Crocus vittatus","50000"
"Dryopteris ×sarvelii","5000"
"Sorbus ×semipinnata","10000"
"Sorbus ×buekkensis","10000"
"Anogramma leptophylla","10000"
"Carex transsylvanica","10000"
"Dactylorhiza lapponica","10000"
"Dactylorhiza ochroleuca","100000"
"Epipactis voethii","10000"
"Lilium martagon subsp. alpinum","10000"
"Sorbus ×javorkae","10000"
"Sorbus ×pannonica","10000"
"Sorbus incisa","10000"
"Sorbus ×subdanubialis","10000"
"Dactylorhiza incarnata var. ochrantha","10000"
"Orobanche pancicii","10000"
"Paeonia tenuifolia","250000"
"Orobanche bartlingii","10000"
"Epipactis futakii","50000"
"Epipactis helleborine subsp. minor","5000"
"Epipactis helleborine subsp. orbicularis","5000"
"Epipactis latina","10000"
"Sorbus ×pseudograeca","10000"
"×Asplenoceterach badense","10000"
"Sorbus carpinifolia","10000"
"Carduus ×budaianus","10000"
"Carduus ×littoralis","10000"
"Cirsium ×candolleanum","5000"
"Spinus spinus","25000"
"Lathyrus collinus","5000"
"Passer domesticus","1000"
