"species_name","values"
"Callosciurus erythraeus","IAS"
"Canis aureus","HD V"
"Castor fiber","HD II, IV"
"Citellus citellus","HD II, IV"
"Dryomys nitedula","HD IV"
"Felis silvestris","HD IV"
"Herpestes javanicus","IAS"
"Lutra lutra","HD II, IV"
"Lynx lynx","HD II, IV"
"Martes martes","HD V"
"Microtus oeconomus","HD II kiemelt, IV"
"Microtus oeconomus mehelyi","HD II kiemelt, IV"
"Muntiacus reevesii","IAS"
"Muscardinus avellanarius","HD IV"
"Mustela eversmanii","HD II, IV"
"Mustela eversmannii","HD II, IV"
"Mustela putorius","HD V"
"Myocastor coypus","IAS"
"Nasua nasua","IAS"
"Nyctereutes procyonoides","IAS"
"Ondatra zibethicus","IAS"
"Procyon lotor","IAS"
"Sciurus carolinensis","IAS"
"Sciurus niger","IAS"
"Sicista subtilis","HD II, IV"
"Spermophilus citellus","HD II, IV"
"Tamias sibiricus","IAS"
"Barbastella barbastellus","HD II, IV"
"Eptesicus nilssonii","HD IV"
"Eptesicus serotinus","HD IV"
"Hypsugo savii","HD IV"
"Miniopterus schreibersii","HD II, IV"
"Myotis alcathoe","HD IV"
"Myotis bechsteinii","HD II, IV"
"Myotis blythii","HD II, IV"
"Myotis brandtii","HD IV"
"Myotis dasycneme","HD II, IV"
"Myotis daubentonii","HD IV"
"Myotis emarginatus","HD II, IV"
"Myotis myotis","HD II, IV"
"Myotis mystacinus","HD IV"
"Myotis nattereri","HD IV"
"Myotis oxygnathus","HD II, IV"
"Cricetus cricetus","HD V"
"Nyctalus lasiopterus","HD IV"
"Nyctalus leisleri","HD IV"
"Nyctalus noctula","HD IV"
"Pipistrellus kuhlii","HD IV"
"Pipistrellus nathusii","HD IV"
"Pipistrellus pipistrellus","HD IV"
"Pipistrellus pygmaeus","HD IV"
"Pipistrellus savii","HD IV"
"Plecotus auritus","HD IV"
"Plecotus austriacus","HD IV"
"Rhinolophus euryale","HD II, IV"
"Rhinolophus ferrumequinum","HD II, IV"
"Rhinolophus hipposideros","HD II, IV"
"Vespertilio murinus","HD IV"
"Aeshna viridis","HD IV"
"Anisus vorticulus","HD II, IV"
"Apatura metis","HD IV"
"Arytrura musculus","HD II, IV"
"Astacus astacus","HD V"
"Austropotamobius torrentium","HD II kiemelt, V"
"Bolbelasmus unicornis","HD II, IV"
"Bythiospeum hungaricum","HD II kiemelt, IV"
"Callimorpha quadripunctaria","HD II kiemelt"
"Callimorpha quadripunctata","HD II kiemelt"
"Carabus hampei","HD II, IV"
"Carabus hungaricus","HD II, IV"
"Carabus variolosus","HD II, IV"
"Carabus zawadszkii","HD II, IV"
"Catopta thrips","HD II, IV"
"Cerambyx cerdo","HD II, IV"
"Chilostoma banaticum","HD II, IV"
"Chondrosoma fiduciarium","HD II, IV"
"Coenagrion ornatum","HD II"
"Coenonympha oedippus","HD II, IV"
"Colias myrmidone","HD II, IV"
"Cordulegaster heros","HD II, IV"
"Cucullia mixta","HD II, IV"
"Dioszeghyana schmidtii","HD II, IV"
"Dorcadion fulvum cervae","HD II, IV"
"Drobacia banatica","HD II, IV"
"Duvalius gebhardti","HD II, IV"
"Duvalius hungaricus","HD II, IV"
"Erannis ankeraria","HD II, IV"
"Eriocheir sinensis","IAS"
"Eriogaster catax","HD II, IV"
"Euphydryas aurinia","HD II"
"Euphydryas maturna","HD II, IV"
"Euplagia quadripunctaria","HD II kiemelt"
"Glyphipterix loricatella","HD II, IV"
"Gortyna borelii","HD II, IV"
"Gortyna borelii lunata","HD II, IV"
"Graphoderus bilineatus","HD II, IV"
"Helix pomatia","HD V"
"Hirudo medicinalis","HD V"
"Hygromia kovacsi","HD II, IV"
"Isophya costata","HD II, IV"
"Isophya stysi","HD II, IV"
"Kovacsia kovacsi","HD II, IV"
"Leptidea morsei","HD II, IV"
"Leucorrhinia caudalis","HD IV"
"Leucorrhinia pectoralis","HD II, IV"
"Lignyoptera fumidaria","HD II, IV"
"Limoniscus violaceus","HD II"
"Lopinga achine","HD IV"
"Lucanus cervus","HD II"
"Lycaena dispar","HD II, IV"
"Lycaena dispar hungarica","HD II, IV"
"Lycaena dispar rutila","HD II, IV"
"Maculinea arion","HD IV"
"Maculinea nausithous","HD II, IV"
"Maculinea teleius","HD II, IV"
"Morimus funereus","HD II"
"Odontopodisma rubripes","HD II, IV"
"Ophiogomphus cecilia","HD II, IV"
"Orconectes limosus","IAS"
"Orconectes virilis","IAS"
"Osmoderma eremita","HD II kiemelt, IV"
"Pacifastacus leniusculus","IAS"
"Paladilhia hungarica","HD II kiemelt, IV"
"Paracaloptenus caloptenoides","HD II, IV"
"Parnassius mnemosyne","HD IV"
"Phengaris arion","HD IV"
"Phengaris nausithous","HD II, IV"
"Phengaris teleius","HD II, IV"
"Pholidoptera transsylvanica","HD II, IV"
"Phyllometra culminaria","HD II, IV"
"Pilemia tigrina","HD II, IV"
"Polymixis rufocincta","HD II, IV"
"Polymixis rufocincta isolata","HD II, IV"
"Probaticus subrugosus","HD II, IV"
"Procambarus clarkii","IAS"
"Procambarus falax","IAS"
"Procambarus falax virginalis","IAS"
"Procambarus falax forma virginalis","IAS"
"Procambarus fallax","IAS"
"Procambarus sp.","IAS"
"Proserpinus proserpina","HD IV"
"Rhysodes sulcatus","HD II"
"Rosalia alpina","HD II kiemelt, IV"
"Sadleriana pannonica","HD II, IV"
"Saga pedo","HD IV"
"Stenobothrus eurasius","HD II, IV"
"Stylurus flavipes","HD IV"
"Theodoxus prevostianus","HD IV"
"Theodoxus transversalis","HD II, IV"
"Unio crassus","HD II, IV"
"Vertigo angustior","HD II"
"Vertigo moulinsiana","HD II"
"Vespa velutina nigrithorax","IAS"
"Zerynthia polyxena","HD IV"
"Acipenser ruthenus","HD V"
"Aspius aspius","HD II, V"
"Barbus barbus","HD V"
"Barbus meridionalis","HD II, V"
"Cobitis elongatoides","HD II"
"Cobitis taenia","HD II"
"Cottus gobio","HD II"
"Eudontomyzon danfordi","HD II"
"Eudontomyzon mariae","HD II"
"Eudontomyzon vladykovi","HD II"
"Gobio albipinnatus","HD II"
"Gobio kesslerii","HD II"
"Gobio uranoscopus","HD II"
"Gymnocephalus baloni","HD II, IV"
"Gymnocephalus schraetser","HD II, V"
"Gymnocephalus schraetzer","HD II, V"
"Hucho hucho","HD II, V"
"Misgurnus fossilis","HD II"
"Pelecus cultratus","HD II, V"
"Perccottus glenii","IAS"
"Pseudorasbora parva","IAS"
"Rhodeus sericeus","HD II"
"Rhodeus sericeus amarus","HD II"
"Romanogobio albipinnatus","HD II"
"Romanogobio kesslerii","HD II"
"Romanogobio uranoscopus","HD II"
"Romanogobio vladykovi","HD II"
"Rutilus pigus","HD II, V"
"Rutilus pigus virgo","HD II, V"
"Rutilus virgo","HD II, V"
"Sabanejewia aurata","HD II"
"Umbra krameri","HD II"
"Zingel streber","HD II"
"Zingel zingel","HD II, V"
"Lepomis gibbosus","IAS"
"Coluber caspius","HD IV"
"Coronella austriaca","HD IV"
"Dolichophis caspius","HD IV"
"Elaphe longissima","HD IV"
"Emys orbicularis","HD II, IV"
"Lacerta agilis","HD IV"
"Lacerta agilis argus","HD IV"
"Lacerta viridis","HD IV"
"Lacerta vivipara","HD IV"
"Lacerta vivipara pannonica","HD IV"
"Natrix tessellata","HD IV"
"Podarcis muralis","HD IV"
"Podarcis taurica","HD IV"
"Trachemys scripta","IAS"
"Trachemys scripta elegans","IAS"
"Trachemys scripta scripta","IAS"
"Vipera ursinii","HD II kiemelt, IV"
"Vipera ursinii rakosiensis","HD II kiemelt, IV"
"Zamenis longissimus","HD IV"
"Zootoca vivipara","HD IV"
"Bombina bombina","HD II, IV"
"Bombina variegata","HD II, IV"
"Bufo viridis","HD IV"
"Hyla arborea","HD IV"
"Lithobates catesbeianus","IAS"
"Pelobates fuscus","HD IV"
"Pelophylax kl. esculentus","HD V"
"Pelophylax lessonae","HD IV"
"Pelophylax ridibundus","HD V"
"Rana arvalis","HD IV"
"Rana catesbeianus","IAS"
"Rana dalmatina","HD IV"
"Rana esculenta","HD V"
"Rana lessonae","HD IV"
"Rana ridibunda","HD V"
"Rana temporaria","HD V"
"Triturus carnifex","HD II, IV"
"Triturus cristatus","HD II, IV"
"Accipiter brevipes","BD"
"Accipiter gentilis","BD_2"
"Accipiter nisus","BD_2"
"Acrocephalus agricola","BD_2"
"Acrocephalus arundinaceus","BD_2"
"Acrocephalus melanopogon","BD"
"Acrocephalus paludicola","BD"
"Acrocephalus palustris","BD_2"
"Acrocephalus schoenobaenus","BD_2"
"Acrocephalus scirpaceus","BD_2"
"Actitis hypoleucos","BD_2"
"Aegithalos caudatus","BD_2"
"Aegolius funereus","BD"
"Aegypius monachus","BD"
"Alauda arvensis","BD_2"
"Alca torda","BD_2"
"Alcedo atthis","BD"
"Alopochen aegyptiaca","IAS"
"Alopochen aegyptiacus ","IAS"
"Anas acuta","BD_2"
"Anas clypeata","BD_2"
"Anas crecca","BD_2"
"Anas penelope","BD_2"
"Anas platyrhynchos","BD_2"
"Anas querquedula","BD_2"
"Anas strepera","BD_2"
"Anser albifrons","BD_2"
"Anser anser","BD_2"
"Anser brachyrhynchus","BD_2"
"Anser erythropus","BD"
"Anser fabalis","BD_2"
"Anthropoides virgo","BD_2"
"Anthus campestris","BD"
"Anthus cervinus","BD_2"
"Anthus pratensis","BD_2"
"Anthus spinoletta","BD_2"
"Anthus trivialis","BD_2"
"Apus apus","BD_2"
"Apus melba","BD_2"
"Apus pallidus","BD_2"
"Aquila chrysaetos","BD"
"Aquila clanga","BD"
"Aquila heliaca","BD"
"Aquila pomarina","BD"
"Ardea alba","BD"
"Ardea cinerea","BD_2"
"Ardea purpurea","BD"
"Ardeola ralloides","BD"
"Arenaria interpres","BD_2"
"Asio flammeus","BD"
"Asio otus","BD_2"
"Aythya ferina","BD_2"
"Aythya fuligula","BD_2"
"Aythya marila","BD_2"
"Aythya nyroca","BD"
"Bombycilla garrulus","BD_2"
"Bonasa bonasia","BD"
"Botaurus stellaris","BD"
"Branta bernicla","BD_2"
"Branta leucopsis","BD"
"Branta ruficollis","BD"
"Bubo bubo","BD"
"Bubo scandiacus","BD"
"Bubulcus ibis","BD_2"
"Bucephala clangula","BD_2"
"Burhinus oedicnemus","BD"
"Buteo buteo","BD_2"
"Buteo lagopus","BD_2"
"Buteo rufinus","BD"
"Calandrella brachydactyla","BD"
"Calcarius lapponicus","BD_2"
"Calidris alba","BD_2"
"Calidris alpina","BD_2"
"Calidris canutus","BD_2"
"Calidris ferruginea","BD_2"
"Calidris maritima","BD_2"
"Calidris minuta","BD_2"
"Calidris temminckii","BD_2"
"Caprimulgus europaeus","BD"
"Carduelis cannabina","BD_2"
"Carduelis carduelis","BD_2"
"Carduelis chloris","BD_2"
"Carduelis flammea","BD_2"
"Carduelis flammea cabaret","BD_2"
"Carduelis flavirostris","BD_2"
"Carduelis hornemanni","BD_2"
"Carduelis spinus","BD_2"
"Carpodacus erythrinus","BD_2"
"Casmerodius albus","BD"
"Cecropis daurica","BD_2"
"Cercotrichas galactotes","BD_2"
"Podiceps cristatus","BD_2"
"Certhia brachydactyla","BD_2"
"Certhia familiaris","BD_2"
"Cettia cetti","BD_2"
"Charadrius alexandrinus","BD"
"Charadrius dubius","BD_2"
"Charadrius hiaticula","BD_2"
"Charadrius leschenaultii","BD_2"
"Charadrius morinellus","BD"
"Chettusia leucura","BD_2"
"Chlidonias hybrida","BD"
"Chlidonias hybridus","BD"
"Chlidonias leucopterus","BD_2"
"Chlidonias niger","BD"
"Chroicocephalus genei","BD"
"Chroicocephalus ridibundus","BD_2"
"Ciconia ciconia","BD"
"Ciconia nigra","BD"
"Cinclus cinclus","BD_2"
"Circaetus gallicus","BD"
"Circus aeruginosus","BD"
"Circus cyaneus","BD"
"Circus macrourus","BD"
"Circus pygargus","BD"
"Coccothraustes coccothraustes","BD_2"
"Columba oenas","BD_2"
"Coracias garrulus","BD"
"Corvus frugilegus","BD_2"
"Corvus monedula","BD_2"
"Corvus splendens","IAS"
"Coturnix coturnix","BD_2"
"Crex crex","BD"
"Cuculus canorus","BD_2"
"Curruca communis","BD_2"
"Curruca curruca","BD_2"
"Curruca nisoria","BD"
"Cyanistes caeruleus","BD_2"
"Cygnus cygnus","BD"
"Cygnus olor","BD_2"
"Delichon urbica","BD_2"
"Delichon urbicum","BD_2"
"Dendrocopos leucotos","BD"
"Dendrocopos medius","BD"
"Dendrocopos syriacus","BD"
"Dryocopus martius","BD"
"Egretta alba","BD"
"Egretta garzetta","BD"
"Elanus caeruleus","BD"
"Emberiza calandra","BD_2"
"Emberiza cia","BD_2"
"Emberiza cirlus","BD_2"
"Emberiza citrinella","BD_2"
"Emberiza hortulana","BD"
"Emberiza leucocephalos","BD_2"
"Emberiza melanocephala","BD_2"
"Emberiza pusilla","BD_2"
"Emberiza rustica","BD_2"
"Emberiza schoeniclus","BD_2"
"Ereunetes alpina","BD_2"
"Ereunetes ferrugineus","BD_2"
"Ereunetes temminckii","BD_2"
"Falco biarmicus","BD"
"Falco cherrug","BD"
"Falco columbarius","BD"
"Falco eleonorae","BD"
"Falco naumanni","BD"
"Falco peregrinus","BD"
"Falco rusticolus","BD"
"Falco subbuteo","BD_2"
"Falco tinnunculus","BD_2"
"Falco vespertinus","BD"
"Ficedula albicollis","BD"
"Ficedula hypoleuca","BD_2"
"Ficedula parva","BD"
"Fratercula arctica","BD_2"
"Fringilla coelebs","BD_2"
"Fringilla montifringilla","BD_2"
"Fulica atra","BD_2"
"Galerida cristata","BD_2"
"Gallinago gallinago","BD_2"
"Gallinula chloropus","BD_2"
"Gavia arctica","BD"
"Gavia immer","BD"
"Gavia stellata","BD"
"Gelochelidon nilotica","BD"
"Glareola nordmanni","BD_2"
"Glareola pratincola","BD"
"Glaucidium passerinum","BD"
"Grus grus","BD"
"Grus virgo","BD_2"
"Haematopus ostralegus","BD_2"
"Haliaeetus albicilla","BD"
"Himantopus himantopus","BD"
"Hippolais icterina","BD_2"
"Hippolais pallida","BD_2"
"Hirundo daurica","BD_2"
"Hirundo rustica","BD_2"
"Hoplopterus spinosus","BD"
"Hydrocoloeus minutus","BD"
"Hydroprogne caspia","BD"
"Ichthyaetus ichthyaetus","BD_2"
"Ichthyaetus melanocephalus","BD"
"Iduna pallida","BD_2"
"Ixobrychus minutus","BD"
"Jynx torquilla","BD_2"
"Lanius collurio","BD"
"Lanius excubitor","BD_2"
"Lanius minor","BD"
"Lanius senator","BD_2"
"Larus argentatus","BD_2"
"Larus audouinii","BD"
"Larus cachinnans","BD_2"
"Larus canus","BD_2"
"Larus fuscus","BD_2"
"Larus fuscus graellsii","BD_2"
"Larus genei","BD"
"Larus hyperboreus","BD_2"
"Larus ichthyaetus","BD_2"
"Larus marinus","BD_2"
"Larus melanocephalus","BD"
"Larus michahellis","BD_2"
"Larus minutus","BD"
"Larus ridibundus","BD_2"
"Leiopicus medius","BD"
"Limicola falcinellus","BD_2"
"Limosa lapponica","BD"
"Limosa limosa","BD_2"
"Locustella fluviatilis","BD_2"
"Locustella luscinioides","BD_2"
"Locustella naevia","BD_2"
"Loxia curvirostra","BD_2"
"Lullula arborea","BD"
"Luscinia luscinia","BD_2"
"Luscinia megarhynchos","BD_2"
"Luscinia svecica","BD"
"Lymnocryptes minimus","BD_2"
"Melanitta fusca","BD_2"
"Melanitta nigra","BD_2"
"Melanocorypha calandra","BD"
"Mergellus albellus","BD"
"Mergus albellus","BD"
"Mergus merganser","BD_2"
"Mergus serrator","BD_2"
"Merops apiaster","BD_2"
"Microcarbo pygmeus","BD"
"Miliaria calandra","BD_2"
"Milvus migrans","BD"
"Milvus milvus","BD"
"Monticola saxatilis","BD_2"
"Monticola solitarius","BD_2"
"Motacilla alba","BD_2"
"Motacilla cinerea","BD_2"
"Motacilla citreola","BD_2"
"Motacilla flava","BD_2"
"Muscicapa striata","BD_2"
"Neophron percnopterus","BD"
"Netta rufina","BD_2"
"Nucifraga caryocatactes","BD_2"
"Numenius arquata","BD_2"
"Numenius phaeopus","BD_2"
"Numenius tenuirostris","BD"
"Nyctea scandiaca","BD"
"Nycticorax nycticorax","BD"
"Oenanthe hispanica","BD_2"
"Oenanthe isabellina","BD_2"
"Oenanthe oenanthe","BD_2"
"Oenanthe pleschanka","BD"
"Oriolus oriolus","BD_2"
"Otis tarda","BD"
"Otus scops","BD_2"
"Oxyura jamaicensis","IAS"
"Oxyura leucocephala","BD"
"Pandion haliaetus","BD"
"Parus ater","BD_2"
"Parus caeruleus","BD_2"
"Pastor roseus","BD_2"
"Pelecanus crispus","BD"
"Pelecanus onocrotalus","BD"
"Periparus ater","BD_2"
"Pernis apivorus","BD"
"Phalacrocorax carbo","BD_2"
"Phalacrocorax pygmeus","BD"
"Phalaropus fulicarius","BD_2"
"Phalaropus lobatus","BD"
"Philomachus pugnax","BD"
"Phoenicopterus ruber","BD"
"Phoenicurus ochruros","BD_2"
"Phoenicurus phoenicurus","BD_2"
"Phylloscopus collybita","BD_2"
"Phylloscopus inornatus","BD_2"
"Phylloscopus proregulus","BD_2"
"Phylloscopus sibilatrix","BD_2"
"Phylloscopus trochilus","BD_2"
"Picus canus","BD"
"Pinicola enucleator","BD_2"
"Platalea leucorodia","BD"
"Plectrophenax nivalis","BD_2"
"Plegadis falcinellus","BD"
"Pluvialis apricaria","BD"
"Pluvialis squatarola","BD_2"
"Podiceps auritus","BD"
"Podiceps grisegena","BD_2"
"Podiceps nigricollis","BD_2"
"Podiceps ruficollis","BD_2"
"Porzana parva","BD"
"Porzana porzana","BD"
"Porzana pusilla","BD"
"Prunella collaris","BD_2"
"Prunella modularis","BD_2"
"Pyrrhocorax pyrrhocorax","BD"
"Pyrrhula pyrrhula","BD_2"
"Rallus aquaticus","BD_2"
"Recurvirostra avosetta","BD"
"Regulus ignicapilla","BD_2"
"Regulus ignicapillus","BD_2"
"Regulus regulus","BD_2"
"Remiz pendulinus","BD_2"
"Riparia riparia","BD_2"
"Rissa tridactyla","BD_2"
"Saxicola rubetra","BD_2"
"Saxicola rubicola","BD_2"
"Saxicola torquata","BD_2"
"Saxicola torquatus","BD_2"
"Serinus serinus","BD_2"
"Somateria mollissima","BD_2"
"Somateria spectabilis","BD_2"
"Stercorarius longicaudus","BD_2"
"Stercorarius parasiticus","BD_2"
"Stercorarius pomarinus","BD_2"
"Stercorarius skua","BD_2"
"Sterna albifrons","BD"
"Sterna caspia","BD"
"Sterna hirundo","BD"
"Sterna paradisaea","BD"
"Sterna sandvicensis","BD"
"Sternula albifrons","BD"
"Streptopelia turtur","BD_2"
"Strix uralensis","BD"
"Sturnus roseus","BD_2"
"Sturnus vulgaris","BD_2"
"Surnia ulula","BD"
"Sylvia atricapilla","BD_2"
"Sylvia borin","BD_2"
"Sylvia cantillans","BD_2"
"Sylvia communis","BD_2"
"Sylvia curruca","BD_2"
"Sylvia melanocephala","BD_2"
"Sylvia nisoria","BD"
"Tachybaptus ruficollis","BD_2"
"Tadorna ferruginea","BD"
"Tadorna tadorna","BD_2"
"Tarsiger cyanurus","BD_2"
"Tetrao urogallus","BD"
"Tetrastes bonasia","BD"
"Tetrax tetrax","BD"
"Threskiornis aethiopicus","IAS"
"Tichodroma muraria","BD_2"
"Tringa erythropus","BD_2"
"Tringa glareola","BD"
"Tringa hypoleucos","BD_2"
"Tringa nebularia","BD_2"
"Tringa ochropus","BD_2"
"Tringa stagnatilis","BD_2"
"Tringa totanus","BD_2"
"Troglodytes troglodytes","BD_2"
"Turdus iliacus","BD_2"
"Turdus merula","BD_2"
"Turdus philomelos","BD_2"
"Turdus pilaris","BD_2"
"Turdus torquatus","BD_2"
"Turdus viscivorus","BD_2"
"Tyto alba","BD_2"
"Upupa epops","BD_2"
"Vanellus leucurus","BD_2"
"Vanellus spinosus","BD"
"Vanellus vanellus","BD_2"
"Xenus cinereus","BD"
"Adenophora liliifolia","HD II, IV"
"Aldrovanda vesiculosa","HD II, IV"
"Alternanthera philoxeroides","IAS"
"Angelica palustris","HD II, IV"
"Apium repens","HD II, IV"
"Arnica montana","HD V"
"Asclepias syriaca","IAS"
"Baccharis halimifolia","IAS"
"Buxbaumia viridis","HD II"
"Cabomba caroliniana","IAS"
"Caldesia parnassifolia","HD II, IV"
"Cirsium brachycephalum","HD II, IV"
"Cladonia spp. (subgenus Cladinia)","HD V"
"Colchicum arenarium","HD II, IV"
"Crambe tataria","HD II, IV"
"Cypripedium calceolus","HD II, IV"
"Dianthus diutinus","HD II kiemelt, IV"
"Dianthus plumarius ssp. lumnitzeri","HD II kiemelt, IV"
"Dicranum viride","HD II"
"Diphasiastrum complanatum","HD V"
"Diphasiastrum issleri","HD V"
"Diphasium complanatum","HD V"
"Diphasium issleri","HD V"
"Dracocephalum austriacum","HD II, IV"
"Echium maculatum","HD II, IV"
"Echium russicum","HD II, IV"
"Eichhornia crassipes","IAS"
"Eleocharis carniolica","HD II, IV"
"Elodea nuttallii","IAS"
"Ferula sadleriana","HD II kiemelt, IV"
"Galanthus nivalis","HD V"
"Gladiolus palustris","HD II, IV"
"Gunnera tinctoria","IAS"
"Heracleum mantegazzianum","IAS"
"Heracleum persicum","IAS"
"Heracleum sosnowskyi","IAS"
"Himantoglossum adriaticum","HD II, IV"
"Himantoglossum caprinum","HD II, IV"
"Himantoglossum jankae","HD II, IV"
"Hydrocotyle ranunculoides","IAS"
"Impatiens glandulifera","IAS"
"Iris aphylla ssp. hungarica","HD II, IV"
"Iris arenaria","HD II, IV"
"Iris humilis ssp. arenaria","HD II, IV"
"Lagarosiphon major","IAS"
"Leucobryum glaucum","HD V"
"Lindernia procumbens","HD IV"
"Linum dolomiticum","HD II kiemelt, IV"
"Liparis loeselii","HD II, IV"
"Ludwigia grandiflora","IAS"
"Ludwigia peploides","IAS"
"Lycopodium annotinum","HD V"
"Lycopodium clavatum","HD V"
"Lycopodium complanatum","HD V"
"Lycopodium issleri","HD V"
"Lycopodium spp.","HD V"
"Lysichiton americanus","IAS"
"Marsilea quadrifolia","HD II, IV"
"Microstegium vimineum","IAS"
"Myriophyllum aquaticum","IAS"
"Myriophyllum heterophyllum","IAS"
"Onosma tornense","HD II kiemelt, IV"
"Paeonia officinalis ssp. banatica","HD II, IV"
"Parthenium hysterophorus","IAS"
"Pennisetum setaceum","IAS"
"Persicaria perfoliata","IAS"
"Pueraria lobata","IAS"
"Pueraria montana","IAS"
"Pueraria montana var. lobata","IAS"
"Pulsatilla flavescens","HD II kiemelt, IV"
"Pulsatilla grandis","HD II, IV"
"Pulsatilla patens","HD II, IV"
"Pulsatilla pratensis ssp. hungarica","HD II kiemelt, IV"
"Pyrus magyarica","HD II kiemelt, IV"
"Ruscus aculeatus","HD V"
"Seseli leucospermum","HD II, IV"
"Sphagnum auriculatum","HD V"
"Sphagnum capillifolium","HD V"
"Sphagnum centrale","HD V"
"Sphagnum compactum","HD V"
"Sphagnum contortum","HD V"
"Sphagnum cuspidatum","HD V"
"Sphagnum fimbriatum","HD V"
"Sphagnum girgensohnii","HD V"
"Sphagnum magellanicum","HD V"
"Sphagnum obtusum","HD V"
"Sphagnum palustre","HD V"
"Sphagnum platyphyllum","HD V"
"Sphagnum quinquefarium","HD V"
"Sphagnum recurvum","HD V"
"Sphagnum russowi","HD V"
"Sphagnum sp.","HD V"
"Sphagnum spp.","HD V"
"Sphagnum squarrosum","HD V"
"Sphagnum subnitens","HD V"
"Sphagnum subsecundum","HD V"
"Sphagnum teres","HD V"
"Sphagnum warnstorfi","HD V"
"Spiranthes aestivalis","HD IV"
"Thlaspi hungaricum","HD II, IV"
"Thlaspi jankae","HD II, IV"
"Thlaspi jankae agg.","HD II, IV"
"Vincetoxicum pannonicum","HD II, IV"
"Cucujus cinnaberinus","HD II, IV"
"Ablepharus kitaibelii fitzingeri","HD IV"
"Ablepharus kitaibelii","HD IV"
"Linaria cannabina","BD_2"
"Gymnocoronis spilanthoides","IAS"
"Acacia saligna","IAS"
"Acridotheres tristis","IAS"
"Lespedeza cuneata","IAS"
"Lygodium japonicum","IAS"
"Plotosus lineatus","IAS"
"Polygonum perfoliatum","IAS"
"Prosopis juliflora","IAS"
"Salvinia molesta","IAS"
"Triadica sebifera","IAS"
"Andropogon virginicus","IAS"
"Arthurdendyus triangulatus","IAS"
"Cardiospermum grandiflorum","IAS"
"Cortaderia jubata","IAS"
"Ehrharta calycina","IAS"
"Ailanthus altissima","IAS"
"Humulus scandens","IAS"
"Pelophylax esculentus","HD V"
"Testudo hermanni","HD II"
"Maculinea arion ligurica","HD IV"
"Mannia triandra","HD II"
"Leuciscus aspius","HD II, V"
"Dianthus plumarius ssp. regis-stephani","HD II, IV"
"Canis lupus","HD II kiemelt, IV"
"Serratula lycopifolia","HD II kiemelt, IV"
"Triturus dobrogicus","HD II"
"Barbus carpathicus","HD II, V"
"Carabus nodulosus","HD II, IV"
"Spinus spinus","BD_2"
